1,Fri,14.08.1998,Stuttgart,2–1,Dortmund
1,Fri,14.08.1998,Duisburg,2–1,Frankfurt
1,Sat,15.08.1998,1860 München,1–2,Kaiserslautern
1,Sat,15.08.1998,Wolfsburg,0–1,Bayern München
1,Sat,15.08.1998,Mönchengladbach,3–0,Schalke
1,Sat,15.08.1998,Bochum,1–2,Freiburg
1,Sat,15.08.1998,Leverkusen,3–1,Rostock
1,Sat,15.08.1998,Nürnberg,1–1,Hamburg
1,Sun,16.08.1998,Hertha BSC,1–0,Bremen
2,Fri,21.08.1998,Rostock,3–3,Wolfsburg
2,Fri,21.08.1998,Bremen,2–3,Nürnberg
2,Sat,22.08.1998,Dortmund,3–0,Hertha BSC
2,Sat,22.08.1998,Schalke,1–0,Stuttgart
2,Sat,22.08.1998,Kaiserslautern,2–1,Mönchengladbach
2,Sat,22.08.1998,Bayern München,3–1,Duisburg
2,Sat,22.08.1998,Freiburg,1–1,Leverkusen
2,Sat,22.08.1998,Frankfurt,2–3,1860 München
2,Sun,23.08.1998,Hamburg,1–0,Bochum
3,Tue,08.09.1998,Stuttgart,4–0,Kaiserslautern
3,Tue,08.09.1998,Mönchengladbach,1–1,Frankfurt
3,Tue,08.09.1998,Duisburg,1–1,1860 München
3,Tue,08.09.1998,Wolfsburg,1–1,Freiburg
3,Tue,08.09.1998,Bochum,2–0,Bremen
3,Wed,09.09.1998,Nürnberg,0–0,Dortmund
3,Wed,09.09.1998,Leverkusen,1–2,Hamburg
3,Wed,09.09.1998,Hertha BSC,2–0,Schalke
3,Wed,09.09.1998,Bayern München,6–1,Rostock
4,Fri,11.09.1998,Frankfurt,1–1,Stuttgart
4,Fri,11.09.1998,1860 München,3–1,Mönchengladbach
4,Sat,12.09.1998,Kaiserslautern,4–3,Hertha BSC
4,Sat,12.09.1998,Schalke,2–2,Nürnberg
4,Sat,12.09.1998,Freiburg,0–2,Bayern München
4,Sat,12.09.1998,Rostock,3–0,Duisburg
4,Sat,12.09.1998,Bremen,2–2,Leverkusen
4,Sat,12.09.1998,Hamburg,1–1,Wolfsburg
4,Sun,13.09.1998,Dortmund,0–1,Bochum
5,Fri,18.09.1998,Hertha BSC,3–1,Frankfurt
5,Fri,18.09.1998,Rostock,0–2,Freiburg
5,Sat,19.09.1998,Stuttgart,0–1,1860 München
5,Sat,19.09.1998,Bochum,1–2,Schalke
5,Sat,19.09.1998,Leverkusen,3–1,Dortmund
5,Sat,19.09.1998,Wolfsburg,2–4,Bremen
5,Sat,19.09.1998,Nürnberg,1–1,Kaiserslautern
5,Sun,20.09.1998,Duisburg,2–2,Mönchengladbach
5,Sun,20.09.1998,Bayern München,5–3,Hamburg
6,Fri,25.09.1998,Hamburg,1–0,Rostock
6,Fri,25.09.1998,1860 München,2–0,Hertha BSC
6,Sat,26.09.1998,Bremen,0–1,Bayern München
6,Sat,26.09.1998,Kaiserslautern,2–3,Bochum
6,Sat,26.09.1998,Mönchengladbach,2–3,Stuttgart
6,Sat,26.09.1998,Dortmund,2–1,Wolfsburg
6,Sat,26.09.1998,Schalke,0–1,Leverkusen
6,Sat,26.09.1998,Freiburg,2–2,Duisburg
6,Sun,27.09.1998,Frankfurt,3–2,Nürnberg
7,Fri,02.10.1998,Hertha BSC,4–1,Mönchengladbach
7,Fri,02.10.1998,Wolfsburg,0–0,Schalke
7,Sat,03.10.1998,Freiburg,0–0,Hamburg
7,Sat,03.10.1998,Rostock,2–1,Bremen
7,Sat,03.10.1998,Bochum,0–0,Frankfurt
7,Sat,03.10.1998,Leverkusen,2–2,Kaiserslautern
7,Sat,03.10.1998,Nürnberg,1–5,1860 München
7,Sun,04.10.1998,Bayern München,2–2,Dortmund
7,Sun,04.10.1998,Duisburg,2–0,Stuttgart
8,Fri,16.10.1998,1860 München,2–1,Bochum
8,Fri,16.10.1998,Kaiserslautern,1–1,Wolfsburg
8,Sat,17.10.1998,Bremen,2–3,Freiburg
8,Sat,17.10.1998,Stuttgart,0–0,Hertha BSC
8,Sat,17.10.1998,Schalke,1–3,Bayern München
8,Sat,17.10.1998,Hamburg,4–1,Duisburg
8,Sat,17.10.1998,Frankfurt,2–3,Leverkusen
8,Sat,17.10.1998,Mönchengladbach,0–2,Nürnberg
8,Sun,18.10.1998,Dortmund,2–0,Rostock
9,Fri,23.10.1998,Freiburg,2–2,Dortmund
9,Fri,23.10.1998,Hamburg,1–1,Bremen
9,Sat,24.10.1998,Nürnberg,2–2,Stuttgart
9,Sat,24.10.1998,Wolfsburg,2–0,Frankfurt
9,Sat,24.10.1998,Rostock,2–2,Schalke
9,Sat,24.10.1998,Bochum,2–1,Mönchengladbach
9,Sat,24.10.1998,Bayern München,4–0,Kaiserslautern
9,Sun,25.10.1998,Duisburg,0–0,Hertha BSC
9,Sun,25.10.1998,Leverkusen,1–1,1860 München
10,Fri,30.10.1998,Mönchengladbach,2–8,Leverkusen
10,Fri,30.10.1998,Kaiserslautern,3–2,Rostock
10,Sat,31.10.1998,Bremen,1–1,Duisburg
10,Sat,31.10.1998,Frankfurt,1–0,Bayern München
10,Sat,31.10.1998,1860 München,2–3,Wolfsburg
10,Sat,31.10.1998,Stuttgart,4–2,Bochum
10,Sun,01.11.1998,Hertha BSC,3–0,Nürnberg
10,Tue,03.11.1998,Schalke,1–1,Freiburg
11,Fri,06.11.1998,Duisburg,1–1,Nürnberg
11,Fri,06.11.1998,Bremen,1–1,Dortmund
11,Sat,07.11.1998,Bayern München,3–1,1860 München
11,Sat,07.11.1998,Hamburg,2–2,Schalke
11,Sat,07.11.1998,Rostock,2–2,Frankfurt
11,Sat,07.11.1998,Freiburg,0–1,Kaiserslautern
11,Sat,07.11.1998,Bochum,2–0,Hertha BSC
11,Sat,07.11.1998,Wolfsburg,7–1,Mönchengladbach
11,Sun,08.11.1998,Leverkusen,0–0,Stuttgart
12,Tue,10.11.1998,Kaiserslautern,1–0,Hamburg
12,Tue,10.11.1998,1860 München,2–1,Rostock
12,Wed,11.11.1998,Stuttgart,1–2,Wolfsburg
12,Wed,11.11.1998,Hertha BSC,0–1,Leverkusen
12,Wed,11.11.1998,Frankfurt,3–1,Freiburg
12,Wed,11.11.1998,Dortmund,2–0,Duisburg
12,Wed,11.11.1998,Nürnberg,2–2,Bochum
13,Fri,13.11.1998,Rostock,1–1,Mönchengladbach
13,Fri,13.11.1998,Bremen,0–1,Kaiserslautern
13,Sat,14.11.1998,Wolfsburg,2–1,Hertha BSC
13,Sat,14.11.1998,Bayern München,2–0,Stuttgart
13,Sat,14.11.1998,Dortmund,3–0,Schalke
13,Sat,14.11.1998,Duisburg,2–0,Bochum
13,Sat,14.11.1998,Hamburg,0–1,Frankfurt
13,Sat,14.11.1998,Leverkusen,3–0,Nürnberg
13,Sun,15.11.1998,Freiburg,1–2,1860 München
14,Fri,20.11.1998,Schalke,2–0,Duisburg
14,Fri,20.11.1998,Frankfurt,0–2,Bremen
14,Sat,21.11.1998,Kaiserslautern,1–0,Dortmund
14,Sat,21.11.1998,Bochum,1–5,Leverkusen
14,Sat,21.11.1998,1860 München,0–0,Hamburg
14,Sat,21.11.1998,Nürnberg,1–1,Wolfsburg
14,Sat,21.11.1998,Hertha BSC,1–0,Bayern München
14,Sat,21.11.1998,Stuttgart,1–1,Rostock
14,Sun,22.11.1998,Mönchengladbach,3–1,Freiburg
10,Tue,24.11.1998,Dortmund,2–1,Hamburg
12,Tue,24.11.1998,Schalke,1–2,Bremen
15,Fri,27.11.1998,Dortmund,3–1,Frankfurt
15,Fri,27.11.1998,Rostock,1–2,Hertha BSC
15,Sat,28.11.1998,Bremen,4–1,1860 München
15,Sat,28.11.1998,Wolfsburg,4–1,Bochum
15,Sat,28.11.1998,Leverkusen,2–0,Duisburg
15,Sat,28.11.1998,Hamburg,3–0,Mönchengladbach
15,Sat,28.11.1998,Freiburg,2–0,Stuttgart
15,Sat,28.11.1998,Bayern München,2–0,Nürnberg
15,Sun,29.11.1998,Kaiserslautern,4–1,Schalke
16,Fri,04.12.1998,Nürnberg,2–2,Rostock
16,Fri,04.12.1998,Bochum,2–2,Bayern München
16,Sat,05.12.1998,Stuttgart,3–1,Hamburg
16,Sat,05.12.1998,Leverkusen,3–0,Wolfsburg
16,Sat,05.12.1998,Frankfurt,1–2,Schalke
16,Sun,06.12.1998,1860 München,2–0,Dortmund
16,Tue,08.12.1998,Mönchengladbach,0–1,Bremen
17,Fri,11.12.1998,Hamburg,0–4,Hertha BSC
17,Fri,11.12.1998,Dortmund,1–1,Mönchengladbach
17,Sat,12.12.1998,Rostock,3–0,Bochum
17,Sat,12.12.1998,Wolfsburg,4–2,Duisburg
17,Sat,12.12.1998,Kaiserslautern,2–1,Frankfurt
17,Sat,12.12.1998,Bremen,2–2,Stuttgart
17,Sat,12.12.1998,Freiburg,1–0,Nürnberg
17,Sat,12.12.1998,Schalke,2–2,1860 München
17,Sun,13.12.1998,Bayern München,2–0,Leverkusen
16,Tue,15.12.1998,Hertha BSC,1–0,Freiburg
12,Wed,16.12.1998,Mönchengladbach,0–2,Bayern München
16,Wed,16.12.1998,Duisburg,3–1,Kaiserslautern
18,Fri,18.12.1998,Freiburg,1–1,Bochum
18,Fri,18.12.1998,Dortmund,3–0,Stuttgart
18,Sat,19.12.1998,Kaiserslautern,1–1,1860 München
18,Sat,19.12.1998,Schalke,1–0,Mönchengladbach
18,Sat,19.12.1998,Bayern München,3–0,Wolfsburg
18,Sat,19.12.1998,Frankfurt,0–0,Duisburg
18,Sat,19.12.1998,Rostock,1–1,Leverkusen
18,Sat,19.12.1998,Hamburg,2–0,Nürnberg
18,Sun,20.12.1998,Bremen,2–1,Hertha BSC
19,Fri,19.02.1999,Wolfsburg,1–1,Rostock
19,Sat,20.02.1999,Leverkusen,1–1,Freiburg
19,Sat,20.02.1999,1860 München,4–1,Frankfurt
19,Sat,20.02.1999,Hertha BSC,3–0,Dortmund
19,Sat,20.02.1999,Stuttgart,2–1,Schalke
19,Sat,20.02.1999,Nürnberg,1–1,Bremen
19,Sat,20.02.1999,Duisburg,0–3,Bayern München
19,Sun,21.02.1999,Mönchengladbach,0–2,Kaiserslautern
20,Fri,26.02.1999,Kaiserslautern,1–1,Stuttgart
20,Fri,26.02.1999,Bremen,1–1,Bochum
20,Sat,27.02.1999,Frankfurt,0–0,Mönchengladbach
20,Sat,27.02.1999,Freiburg,0–0,Wolfsburg
20,Sat,27.02.1999,1860 München,0–0,Duisburg
20,Sat,27.02.1999,Rostock,0–4,Bayern München
20,Sat,27.02.1999,Dortmund,3–0,Nürnberg
20,Sat,27.02.1999,Hamburg,0–0,Leverkusen
20,Sun,28.02.1999,Schalke,0–0,Hertha BSC
21,Fri,05.03.1999,Duisburg,4–1,Rostock
21,Fri,05.03.1999,Nürnberg,3–0,Schalke
21,Sat,06.03.1999,Hertha BSC,1–1,Kaiserslautern
21,Sat,06.03.1999,Bayern München,2–0,Freiburg
21,Sat,06.03.1999,Bochum,0–1,Dortmund
21,Sat,06.03.1999,Stuttgart,2–0,Frankfurt
21,Sat,06.03.1999,Wolfsburg,4–1,Hamburg
21,Sat,06.03.1999,Mönchengladbach,2–0,1860 München
21,Sun,07.03.1999,Leverkusen,2–0,Bremen
22,Fri,12.03.1999,Dortmund,1–0,Leverkusen
22,Fri,12.03.1999,Freiburg,3–0,Rostock
22,Sat,13.03.1999,Schalke,2–2,Bochum
22,Sat,13.03.1999,Bremen,0–1,Wolfsburg
22,Sat,13.03.1999,Mönchengladbach,0–2,Duisburg
22,Sat,13.03.1999,1860 München,1–1,Stuttgart
22,Sat,13.03.1999,Kaiserslautern,2–0,Nürnberg
22,Sat,13.03.1999,Hamburg,0–2,Bayern München
22,Sun,14.03.1999,Frankfurt,1–1,Hertha BSC
19,Tue,16.03.1999,Bochum,2–0,Hamburg
23,Fri,19.03.1999,Wolfsburg,0–0,Dortmund
23,Fri,19.03.1999,Leverkusen,1–1,Schalke
23,Sat,20.03.1999,Hertha BSC,2–1,1860 München
23,Sat,20.03.1999,Bayern München,1–0,Bremen
23,Sat,20.03.1999,Stuttgart,2–2,Mönchengladbach
23,Sat,20.03.1999,Nürnberg,2–2,Frankfurt
23,Sat,20.03.1999,Duisburg,1–0,Freiburg
23,Sat,20.03.1999,Bochum,1–2,Kaiserslautern
23,Sun,21.03.1999,Rostock,0–1,Hamburg
24,Sat,03.04.1999,Dortmund,2–2,Bayern München
24,Sat,03.04.1999,1860 München,1–2,Nürnberg
24,Sat,03.04.1999,Kaiserslautern,0–1,Leverkusen
24,Sat,03.04.1999,Bremen,0–3,Rostock
24,Sat,03.04.1999,Schalke,2–0,Wolfsburg
24,Sat,03.04.1999,Hamburg,2–1,Freiburg
24,Sat,03.04.1999,Stuttgart,0–0,Duisburg
24,Sun,04.04.1999,Frankfurt,1–0,Bochum
24,Sun,04.04.1999,Mönchengladbach,2–4,Hertha BSC
25,Fri,09.04.1999,Freiburg,0–2,Bremen
25,Fri,09.04.1999,Duisburg,2–3,Hamburg
25,Sat,10.04.1999,Leverkusen,2–1,Frankfurt
25,Sat,10.04.1999,Nürnberg,2–0,Mönchengladbach
25,Sat,10.04.1999,Bayern München,1–1,Schalke
25,Sat,10.04.1999,Rostock,2–0,Dortmund
25,Sat,10.04.1999,Wolfsburg,2–1,Kaiserslautern
25,Sat,10.04.1999,Hertha BSC,2–0,Stuttgart
25,Sun,11.04.1999,Bochum,2–0,1860 München
26,Tue,13.04.1999,Bremen,0–0,Hamburg
26,Tue,13.04.1999,Schalke,1–0,Rostock
26,Tue,13.04.1999,Kaiserslautern,2–1,Bayern München
26,Tue,13.04.1999,Stuttgart,0–0,Nürnberg
26,Tue,13.04.1999,Frankfurt,0–1,Wolfsburg
26,Wed,14.04.1999,Hertha BSC,1–3,Duisburg
26,Wed,14.04.1999,Mönchengladbach,2–2,Bochum
26,Wed,14.04.1999,Dortmund,2–1,Freiburg
26,Wed,14.04.1999,1860 München,0–2,Leverkusen
27,Fri,16.04.1999,Rostock,2–1,Kaiserslautern
27,Fri,16.04.1999,Bayern München,3–1,Frankfurt
27,Sat,17.04.1999,Freiburg,0–2,Schalke
27,Sat,17.04.1999,Nürnberg,0–0,Hertha BSC
27,Sat,17.04.1999,Bochum,3–3,Stuttgart
27,Sat,17.04.1999,Duisburg,2–0,Bremen
27,Sat,17.04.1999,Wolfsburg,1–0,1860 München
27,Sat,17.04.1999,Leverkusen,4–1,Mönchengladbach
27,Sun,18.04.1999,Hamburg,0–0,Dortmund
28,Fri,23.04.1999,Stuttgart,0–1,Leverkusen
28,Fri,23.04.1999,Dortmund,2–1,Bremen
28,Sat,24.04.1999,Mönchengladbach,5–2,Wolfsburg
28,Sat,24.04.1999,Nürnberg,0–2,Duisburg
28,Sat,24.04.1999,Frankfurt,2–2,Rostock
28,Sat,24.04.1999,Schalke,1–4,Hamburg
28,Sat,24.04.1999,Kaiserslautern,0–2,Freiburg
28,Sat,24.04.1999,Hertha BSC,4–1,Bochum
28,Sun,25.04.1999,1860 München,1–1,Bayern München
29,Fri,30.04.1999,Bochum,0–3,Nürnberg
29,Fri,30.04.1999,Freiburg,2–0,Frankfurt
29,Sat,01.05.1999,Bayern München,4–2,Mönchengladbach
29,Sat,01.05.1999,Hamburg,2–0,Kaiserslautern
29,Sat,01.05.1999,Leverkusen,2–2,Hertha BSC
29,Sat,01.05.1999,Wolfsburg,3–2,Stuttgart
29,Sat,01.05.1999,Rostock,4–1,1860 München
29,Sun,02.05.1999,Duisburg,3–2,Dortmund
30,Tue,04.05.1999,Frankfurt,2–2,Hamburg
30,Tue,04.05.1999,Kaiserslautern,4–0,Bremen
30,Tue,04.05.1999,Stuttgart,0–2,Bayern München
30,Tue,04.05.1999,Mönchengladbach,1–1,Rostock
30,Wed,05.05.1999,1860 München,2–0,Freiburg
30,Wed,05.05.1999,Nürnberg,2–2,Leverkusen
30,Wed,05.05.1999,Schalke,1–1,Dortmund
30,Wed,05.05.1999,Bochum,0–2,Duisburg
30,Wed,05.05.1999,Hertha BSC,2–0,Wolfsburg
31,Fri,07.05.1999,Bremen,1–2,Frankfurt
31,Fri,07.05.1999,Rostock,3–0,Stuttgart
31,Sat,08.05.1999,Wolfsburg,1–1,Nürnberg
31,Sat,08.05.1999,Freiburg,2–1,Mönchengladbach
31,Sat,08.05.1999,Dortmund,1–0,Kaiserslautern
31,Sat,08.05.1999,Leverkusen,2–0,Bochum
31,Sat,08.05.1999,Duisburg,1–2,Schalke
31,Sat,08.05.1999,Hamburg,3–0,1860 München
31,Sun,09.05.1999,Bayern München,1–1,Hertha BSC
29,Tue,11.05.1999,Bremen,1–0,Schalke
32,Fri,14.05.1999,Hertha BSC,2–0,Rostock
32,Fri,14.05.1999,Mönchengladbach,2–2,Hamburg
32,Sat,15.05.1999,Nürnberg,2–0,Bayern München
32,Sat,15.05.1999,Duisburg,0–0,Leverkusen
32,Sat,15.05.1999,1860 München,1–3,Bremen
32,Sat,15.05.1999,Bochum,0–2,Wolfsburg
32,Sat,15.05.1999,Stuttgart,3–1,Freiburg
32,Sat,15.05.1999,Frankfurt,2–0,Dortmund
32,Sun,16.05.1999,Schalke,0–2,Kaiserslautern
33,Sat,22.05.1999,Rostock,1–1,Nürnberg
33,Sat,22.05.1999,Dortmund,3–1,1860 München
33,Sat,22.05.1999,Kaiserslautern,3–0,Duisburg
33,Sat,22.05.1999,Schalke,2–3,Frankfurt
33,Sat,22.05.1999,Bremen,4–1,Mönchengladbach
33,Sat,22.05.1999,Freiburg,0–2,Hertha BSC
33,Sat,22.05.1999,Wolfsburg,1–0,Leverkusen
33,Sat,22.05.1999,Bayern München,4–2,Bochum
33,Sat,22.05.1999,Hamburg,3–1,Stuttgart
34,Sat,29.05.1999,1860 München,4–5,Schalke
34,Sat,29.05.1999,Mönchengladbach,0–2,Dortmund
34,Sat,29.05.1999,Hertha BSC,6–1,Hamburg
34,Sat,29.05.1999,Bochum,2–3,Rostock
34,Sat,29.05.1999,Leverkusen,1–2,Bayern München
34,Sat,29.05.1999,Stuttgart,1–0,Bremen
34,Sat,29.05.1999,Duisburg,6–1,Wolfsburg
34,Sat,29.05.1999,Frankfurt,5–1,Kaiserslautern
34,Sat,29.05.1999,Nürnberg,1–2,Freiburg
