1,Fri,13.08.1999,Duisburg,0–0,Leverkusen
1,Fri,13.08.1999,Wolfsburg,2–1,1860 München
1,Sat,14.08.1999,Stuttgart,0–0,Bremen
1,Sat,14.08.1999,Schalke,1–1,Arminia
1,Sat,14.08.1999,Kaiserslautern,1–0,Dortmund
1,Sat,14.08.1999,Bayern München,2–2,Hamburg
1,Sat,14.08.1999,Frankfurt,3–0,Unterhaching
1,Sun,15.08.1999,Ulm,1–1,Freiburg
1,Sun,15.08.1999,Hertha BSC,5–2,Rostock
2,Fri,20.08.1999,Arminia,1–1,Hertha BSC
2,Fri,20.08.1999,Unterhaching,2–0,Duisburg
2,Sat,21.08.1999,Hamburg,3–0,Stuttgart
2,Sat,21.08.1999,Dortmund,2–1,Wolfsburg
2,Sat,21.08.1999,1860 München,4–1,Ulm
2,Sat,21.08.1999,Freiburg,2–3,Frankfurt
2,Sat,21.08.1999,Bremen,0–1,Schalke
2,Sun,22.08.1999,Leverkusen,2–0,Bayern München
2,Sun,22.08.1999,Rostock,4–2,Kaiserslautern
3,Fri,27.08.1999,Kaiserslautern,0–2,Arminia
3,Fri,27.08.1999,Schalke,1–3,Hamburg
3,Sat,28.08.1999,Stuttgart,1–2,Leverkusen
3,Sat,28.08.1999,Hertha BSC,1–1,Bremen
3,Sat,28.08.1999,Bayern München,1–0,Unterhaching
3,Sat,28.08.1999,Wolfsburg,2–0,Rostock
3,Sat,28.08.1999,Freiburg,3–0,1860 München
3,Sun,29.08.1999,Frankfurt,2–2,Duisburg
3,Sun,29.08.1999,Ulm,0–1,Dortmund
4,Fri,10.09.1999,Rostock,2–1,Ulm
4,Fri,10.09.1999,Arminia,0–0,Wolfsburg
4,Sat,11.09.1999,Hamburg,5–1,Hertha BSC
4,Sat,11.09.1999,Dortmund,1–1,Freiburg
4,Sat,11.09.1999,Leverkusen,3–2,Schalke
4,Sat,11.09.1999,Unterhaching,2–0,Stuttgart
4,Sat,11.09.1999,Duisburg,1–2,Bayern München
4,Sun,12.09.1999,1860 München,2–0,Frankfurt
4,Sun,12.09.1999,Bremen,5–0,Kaiserslautern
5,Fri,17.09.1999,Freiburg,5–0,Rostock
5,Fri,17.09.1999,1860 München,0–3,Dortmund
5,Sat,18.09.1999,Schalke,1–0,Unterhaching
5,Sat,18.09.1999,Hertha BSC,0–0,Leverkusen
5,Sat,18.09.1999,Stuttgart,4–2,Duisburg
5,Sat,18.09.1999,Frankfurt,1–2,Bayern München
5,Sat,18.09.1999,Ulm,2–0,Arminia
5,Sun,19.09.1999,Kaiserslautern,2–0,Hamburg
5,Sun,19.09.1999,Wolfsburg,2–7,Bremen
6,Fri,24.09.1999,Bayern München,0–1,Stuttgart
6,Fri,24.09.1999,Hamburg,2–2,Wolfsburg
6,Sat,25.09.1999,Duisburg,1–1,Schalke
6,Sat,25.09.1999,Unterhaching,1–1,Hertha BSC
6,Sat,25.09.1999,Dortmund,1–0,Frankfurt
6,Sat,25.09.1999,Bremen,2–2,Ulm
6,Sat,25.09.1999,Rostock,0–0,1860 München
6,Sun,26.09.1999,Leverkusen,3–1,Kaiserslautern
6,Sun,26.09.1999,Arminia,2–1,Freiburg
7,Fri,01.10.1999,Frankfurt,0–1,Stuttgart
7,Fri,01.10.1999,1860 München,5–0,Arminia
7,Sat,02.10.1999,Hertha BSC,2–1,Duisburg
7,Sat,02.10.1999,Dortmund,3–0,Rostock
7,Sat,02.10.1999,Wolfsburg,3–1,Leverkusen
7,Sat,02.10.1999,Schalke,1–1,Bayern München
7,Sat,02.10.1999,Ulm,1–2,Hamburg
7,Sun,03.10.1999,Kaiserslautern,4–2,Unterhaching
7,Sun,03.10.1999,Freiburg,2–1,Bremen
8,Fri,15.10.1999,Leverkusen,4–1,Ulm
8,Fri,15.10.1999,Arminia,0–2,Dortmund
8,Sat,16.10.1999,Hamburg,2–0,Freiburg
8,Sat,16.10.1999,Bremen,1–3,1860 München
8,Sat,16.10.1999,Bayern München,3–1,Hertha BSC
8,Sat,16.10.1999,Rostock,3–1,Frankfurt
8,Sat,16.10.1999,Duisburg,2–2,Kaiserslautern
8,Sun,17.10.1999,Unterhaching,1–1,Wolfsburg
8,Sun,17.10.1999,Stuttgart,0–2,Schalke
9,Fri,22.10.1999,Rostock,2–1,Arminia
9,Fri,22.10.1999,Frankfurt,0–2,Schalke
9,Sat,23.10.1999,Ulm,1–0,Unterhaching
9,Sat,23.10.1999,1860 München,0–0,Hamburg
9,Sat,23.10.1999,Freiburg,0–0,Leverkusen
9,Sat,23.10.1999,Kaiserslautern,0–2,Bayern München
9,Sat,23.10.1999,Hertha BSC,1–1,Stuttgart
9,Sun,24.10.1999,Dortmund,1–3,Bremen
9,Sun,24.10.1999,Wolfsburg,1–0,Duisburg
10,Fri,29.10.1999,Arminia,1–1,Frankfurt
10,Fri,29.10.1999,Bremen,2–1,Rostock
10,Sat,30.10.1999,Hamburg,1–1,Dortmund
10,Sat,30.10.1999,Duisburg,0–0,Ulm
10,Sat,30.10.1999,Leverkusen,1–1,1860 München
10,Sat,30.10.1999,Bayern München,5–0,Wolfsburg
10,Sat,30.10.1999,Schalke,1–1,Hertha BSC
10,Sun,31.10.1999,Unterhaching,1–0,Freiburg
10,Sun,31.10.1999,Stuttgart,0–1,Kaiserslautern
11,Fri,05.11.1999,Freiburg,3–0,Duisburg
11,Fri,05.11.1999,Rostock,3–3,Hamburg
11,Sat,06.11.1999,Ulm,0–1,Bayern München
11,Sat,06.11.1999,Wolfsburg,0–2,Stuttgart
11,Sat,06.11.1999,Dortmund,1–1,Leverkusen
11,Sat,06.11.1999,1860 München,2–1,Unterhaching
11,Sat,06.11.1999,Frankfurt,4–0,Hertha BSC
11,Sun,07.11.1999,Arminia,2–2,Bremen
11,Sun,07.11.1999,Kaiserslautern,2–1,Schalke
12,Fri,19.11.1999,Bremen,3–1,Frankfurt
12,Sat,20.11.1999,Schalke,1–1,Wolfsburg
12,Sat,20.11.1999,Leverkusen,1–1,Rostock
12,Sat,20.11.1999,Bayern München,6–1,Freiburg
12,Sat,20.11.1999,Stuttgart,2–0,Ulm
12,Sat,20.11.1999,Hertha BSC,0–1,Kaiserslautern
12,Sun,21.11.1999,Duisburg,3–0,1860 München
12,Sun,21.11.1999,Hamburg,5–0,Arminia
13,Fri,26.11.1999,Freiburg,0–2,Stuttgart
13,Fri,26.11.1999,Ulm,1–1,Schalke
13,Sat,27.11.1999,Rostock,1–1,Unterhaching
13,Sat,27.11.1999,Wolfsburg,2–3,Hertha BSC
13,Sat,27.11.1999,Arminia,1–2,Leverkusen
13,Sat,27.11.1999,1860 München,1–0,Bayern München
13,Sun,28.11.1999,Dortmund,2–2,Duisburg
13,Sun,28.11.1999,Frankfurt,0–1,Kaiserslautern
13,Sun,28.11.1999,Bremen,2–1,Hamburg
12,Wed,01.12.1999,Unterhaching,1–0,Dortmund
14,Fri,03.12.1999,Duisburg,2–2,Rostock
14,Fri,03.12.1999,Hamburg,1–0,Frankfurt
14,Sat,04.12.1999,Stuttgart,1–3,1860 München
14,Sat,04.12.1999,Schalke,2–2,Freiburg
14,Sat,04.12.1999,Hertha BSC,3–0,Ulm
14,Sat,04.12.1999,Bayern München,1–1,Dortmund
14,Sat,04.12.1999,Leverkusen,3–2,Bremen
14,Sun,05.12.1999,Unterhaching,2–0,Arminia
14,Sun,05.12.1999,Kaiserslautern,2–2,Wolfsburg
15,Fri,10.12.1999,Arminia,0–1,Duisburg
15,Fri,10.12.1999,Bremen,2–2,Unterhaching
15,Sat,11.12.1999,1860 München,3–3,Schalke
15,Sat,11.12.1999,Freiburg,0–1,Hertha BSC
15,Sat,11.12.1999,Rostock,0–3,Bayern München
15,Sat,11.12.1999,Dortmund,1–1,Stuttgart
15,Sun,12.12.1999,Wolfsburg,1–0,Frankfurt
15,Sun,12.12.1999,Leverkusen,2–2,Hamburg
15,Sun,12.12.1999,Ulm,3–1,Kaiserslautern
16,Tue,14.12.1999,Stuttgart,3–1,Rostock
16,Tue,14.12.1999,Hertha BSC,1–1,1860 München
16,Tue,14.12.1999,Bayern München,2–1,Arminia
16,Tue,14.12.1999,Duisburg,0–1,Bremen
16,Wed,15.12.1999,Schalke,0–0,Dortmund
16,Wed,15.12.1999,Wolfsburg,1–2,Ulm
16,Wed,15.12.1999,Frankfurt,1–2,Leverkusen
16,Wed,15.12.1999,Unterhaching,1–1,Hamburg
16,Wed,15.12.1999,Kaiserslautern,0–2,Freiburg
17,Fri,17.12.1999,Arminia,1–2,Stuttgart
17,Fri,17.12.1999,Bremen,0–2,Bayern München
17,Sat,18.12.1999,Ulm,3–0,Frankfurt
17,Sat,18.12.1999,Freiburg,1–1,Wolfsburg
17,Sat,18.12.1999,Leverkusen,2–1,Unterhaching
17,Sat,18.12.1999,Hamburg,6–1,Duisburg
17,Sat,18.12.1999,1860 München,2–1,Kaiserslautern
17,Sun,19.12.1999,Dortmund,4–0,Hertha BSC
17,Sun,19.12.1999,Rostock,1–0,Schalke
18,Fri,04.02.2000,Rostock,0–1,Hertha BSC
18,Fri,04.02.2000,Dortmund,0–1,Kaiserslautern
18,Sat,05.02.2000,Freiburg,2–0,Ulm
18,Sat,05.02.2000,Arminia,1–2,Schalke
18,Sat,05.02.2000,Bremen,2–1,Stuttgart
18,Sat,05.02.2000,1860 München,1–2,Wolfsburg
18,Sat,05.02.2000,Leverkusen,3–0,Duisburg
18,Sun,06.02.2000,Unterhaching,1–0,Frankfurt
18,Sun,06.02.2000,Hamburg,0–0,Bayern München
19,Tue,08.02.2000,Kaiserslautern,2–2,Rostock
19,Tue,08.02.2000,Ulm,3–0,1860 München
19,Tue,08.02.2000,Hertha BSC,2–0,Arminia
19,Tue,08.02.2000,Schalke,3–1,Bremen
19,Wed,09.02.2000,Duisburg,2–0,Unterhaching
19,Wed,09.02.2000,Frankfurt,2–0,Freiburg
19,Wed,09.02.2000,Bayern München,4–1,Leverkusen
19,Wed,09.02.2000,Stuttgart,1–3,Hamburg
19,Wed,09.02.2000,Wolfsburg,1–0,Dortmund
20,Fri,11.02.2000,Bremen,4–1,Hertha BSC
20,Fri,11.02.2000,Arminia,1–2,Kaiserslautern
20,Sat,12.02.2000,Rostock,1–1,Wolfsburg
20,Sat,12.02.2000,Duisburg,2–3,Frankfurt
20,Sat,12.02.2000,Dortmund,1–1,Ulm
20,Sat,12.02.2000,Unterhaching,0–2,Bayern München
20,Sat,12.02.2000,Leverkusen,1–0,Stuttgart
20,Sun,13.02.2000,Hamburg,3–1,Schalke
20,Sun,13.02.2000,1860 München,3–1,Freiburg
21,Fri,18.02.2000,Hertha BSC,2–1,Hamburg
21,Fri,18.02.2000,Schalke,1–1,Leverkusen
21,Sat,19.02.2000,Freiburg,1–1,Dortmund
21,Sat,19.02.2000,Frankfurt,3–1,1860 München
21,Sat,19.02.2000,Stuttgart,0–2,Unterhaching
21,Sat,19.02.2000,Kaiserslautern,4–3,Bremen
21,Sat,19.02.2000,Bayern München,4–1,Duisburg
21,Sun,20.02.2000,Ulm,1–1,Rostock
21,Sun,20.02.2000,Wolfsburg,2–0,Arminia
22,Fri,25.02.2000,Rostock,1–1,Freiburg
22,Sat,26.02.2000,Hamburg,2–1,Kaiserslautern
22,Sat,26.02.2000,Leverkusen,3–1,Hertha BSC
22,Sat,26.02.2000,Duisburg,1–3,Stuttgart
22,Sat,26.02.2000,Bremen,2–2,Wolfsburg
22,Sat,26.02.2000,Bayern München,4–1,Frankfurt
22,Sun,27.02.2000,Unterhaching,3–1,Schalke
22,Sun,27.02.2000,Dortmund,1–1,1860 München
22,Mon,28.02.2000,Arminia,4–1,Ulm
23,Fri,03.03.2000,Wolfsburg,4–4,Hamburg
23,Fri,03.03.2000,Freiburg,1–1,Arminia
23,Sat,04.03.2000,Hertha BSC,2–1,Unterhaching
23,Sat,04.03.2000,Schalke,3–0,Duisburg
23,Sat,04.03.2000,Kaiserslautern,1–3,Leverkusen
23,Sat,04.03.2000,1860 München,4–3,Rostock
23,Sat,04.03.2000,Stuttgart,2–0,Bayern München
23,Sun,05.03.2000,Frankfurt,1–1,Dortmund
23,Sun,05.03.2000,Ulm,2–1,Bremen
24,Fri,10.03.2000,Unterhaching,1–2,Kaiserslautern
24,Fri,10.03.2000,Stuttgart,0–2,Frankfurt
24,Sat,11.03.2000,Hamburg,1–2,Ulm
24,Sat,11.03.2000,Arminia,2–2,1860 München
24,Sat,11.03.2000,Duisburg,0–0,Hertha BSC
24,Sat,11.03.2000,Bayern München,4–1,Schalke
24,Sat,11.03.2000,Leverkusen,4–1,Wolfsburg
24,Sun,12.03.2000,Bremen,5–2,Freiburg
24,Sun,12.03.2000,Rostock,1–0,Dortmund
25,Fri,17.03.2000,Wolfsburg,2–2,Unterhaching
25,Fri,17.03.2000,Frankfurt,0–0,Rostock
25,Sat,18.03.2000,Schalke,3–0,Stuttgart
25,Sat,18.03.2000,Hertha BSC,1–1,Bayern München
25,Sat,18.03.2000,Freiburg,0–2,Hamburg
25,Sat,18.03.2000,Kaiserslautern,3–2,Duisburg
25,Sat,18.03.2000,Ulm,1–9,Leverkusen
25,Sun,19.03.2000,1860 München,1–0,Bremen
25,Sun,19.03.2000,Dortmund,1–3,Arminia
26,Fri,24.03.2000,Unterhaching,1–0,Ulm
26,Fri,24.03.2000,Arminia,2–2,Rostock
26,Sat,25.03.2000,Bayern München,2–2,Kaiserslautern
26,Sat,25.03.2000,Duisburg,2–3,Wolfsburg
26,Sat,25.03.2000,Stuttgart,1–0,Hertha BSC
26,Sat,25.03.2000,Leverkusen,1–1,Freiburg
26,Sat,25.03.2000,Hamburg,2–0,1860 München
26,Sun,26.03.2000,Bremen,3–2,Dortmund
26,Sun,26.03.2000,Schalke,0–0,Frankfurt
27,Fri,31.03.2000,Ulm,0–3,Duisburg
27,Fri,31.03.2000,Freiburg,4–3,Unterhaching
27,Sat,01.04.2000,Wolfsburg,1–1,Bayern München
27,Sat,01.04.2000,1860 München,1–2,Leverkusen
27,Sat,01.04.2000,Dortmund,0–1,Hamburg
27,Sat,01.04.2000,Frankfurt,2–1,Arminia
27,Sat,01.04.2000,Hertha BSC,2–1,Schalke
27,Sun,02.04.2000,Kaiserslautern,1–2,Stuttgart
27,Sun,02.04.2000,Rostock,1–1,Bremen
28,Fri,07.04.2000,Hamburg,1–0,Rostock
28,Fri,07.04.2000,Unterhaching,1–1,1860 München
28,Sat,08.04.2000,Bayern München,4–0,Ulm
28,Sat,08.04.2000,Schalke,1–2,Kaiserslautern
28,Sat,08.04.2000,Hertha BSC,1–0,Frankfurt
28,Sat,08.04.2000,Leverkusen,3–1,Dortmund
28,Sat,08.04.2000,Stuttgart,2–5,Wolfsburg
28,Sun,09.04.2000,Duisburg,1–2,Freiburg
28,Sun,09.04.2000,Bremen,3–1,Arminia
29,Tue,11.04.2000,Wolfsburg,0–0,Schalke
29,Tue,11.04.2000,Kaiserslautern,1–2,Hertha BSC
29,Tue,11.04.2000,Dortmund,1–3,Unterhaching
29,Tue,11.04.2000,Ulm,1–1,Stuttgart
29,Wed,12.04.2000,Rostock,1–1,Leverkusen
29,Wed,12.04.2000,1860 München,4–1,Duisburg
29,Wed,12.04.2000,Arminia,3–0,Hamburg
29,Wed,12.04.2000,Freiburg,1–2,Bayern München
29,Wed,12.04.2000,Frankfurt,1–0,Bremen
30,Fri,14.04.2000,Schalke,0–0,Ulm
30,Fri,14.04.2000,Hertha BSC,0–0,Wolfsburg
30,Sat,15.04.2000,Hamburg,0–0,Bremen
30,Sat,15.04.2000,Kaiserslautern,1–0,Frankfurt
30,Sat,15.04.2000,Duisburg,2–2,Dortmund
30,Sat,15.04.2000,Stuttgart,1–0,Freiburg
30,Sat,15.04.2000,Bayern München,1–2,1860 München
30,Sun,16.04.2000,Unterhaching,1–1,Rostock
30,Sun,16.04.2000,Leverkusen,4–1,Arminia
31,Thu,20.04.2000,Bremen,1–3,Leverkusen
31,Thu,20.04.2000,Frankfurt,3–0,Hamburg
31,Sat,22.04.2000,Rostock,3–1,Duisburg
31,Sat,22.04.2000,Ulm,0–1,Hertha BSC
31,Sat,22.04.2000,Freiburg,2–1,Schalke
31,Sat,22.04.2000,1860 München,1–1,Stuttgart
31,Sat,22.04.2000,Wolfsburg,3–2,Kaiserslautern
31,Sun,23.04.2000,Dortmund,0–1,Bayern München
31,Sun,23.04.2000,Arminia,1–0,Unterhaching
32,Thu,27.04.2000,Duisburg,0–3,Arminia
32,Fri,28.04.2000,Hertha BSC,0–0,Freiburg
32,Fri,28.04.2000,Frankfurt,4–0,Wolfsburg
32,Sat,29.04.2000,Stuttgart,1–2,Dortmund
32,Sat,29.04.2000,Kaiserslautern,6–2,Ulm
32,Sat,29.04.2000,Bayern München,4–1,Rostock
32,Sat,29.04.2000,Schalke,2–2,1860 München
32,Sun,30.04.2000,Unterhaching,1–0,Bremen
32,Sun,30.04.2000,Hamburg,0–2,Leverkusen
33,Sat,13.05.2000,Freiburg,2–1,Kaiserslautern
33,Sat,13.05.2000,Dortmund,1–1,Schalke
33,Sat,13.05.2000,Bremen,4–0,Duisburg
33,Sat,13.05.2000,Hamburg,3–0,Unterhaching
33,Sat,13.05.2000,Leverkusen,4–1,Frankfurt
33,Sat,13.05.2000,Ulm,2–0,Wolfsburg
33,Sat,13.05.2000,Rostock,1–4,Stuttgart
33,Sat,13.05.2000,1860 München,2–1,Hertha BSC
33,Sat,13.05.2000,Arminia,0–3,Bayern München
34,Sat,20.05.2000,Schalke,0–2,Rostock
34,Sat,20.05.2000,Unterhaching,2–0,Leverkusen
34,Sat,20.05.2000,Stuttgart,3–3,Arminia
34,Sat,20.05.2000,Wolfsburg,2–1,Freiburg
34,Sat,20.05.2000,Hertha BSC,0–3,Dortmund
34,Sat,20.05.2000,Frankfurt,2–1,Ulm
34,Sat,20.05.2000,Bayern München,3–1,Bremen
34,Sat,20.05.2000,Kaiserslautern,1–1,1860 München
34,Sat,20.05.2000,Duisburg,1–1,Hamburg
