1,Fri,01.08.2003,Bayern München,3–1,Frankfurt
1,Sat,02.08.2003,Schalke,2–2,Dortmund
1,Sat,02.08.2003,Hertha BSC,0–3,Bremen
1,Sat,02.08.2003,Wolfsburg,3–2,Bochum
1,Sat,02.08.2003,Leverkusen,4–1,Freiburg
1,Sat,02.08.2003,Kaiserslautern,0–1,1860 München
1,Sat,02.08.2003,Hamburg,0–3,Hannover
1,Sun,03.08.2003,Mönchengladbach,1–0,Köln
1,Sun,03.08.2003,Rostock,0–2,Stuttgart
2,Sat,09.08.2003,Hannover,3–3,Bayern München
2,Sat,09.08.2003,Köln,1–2,Kaiserslautern
2,Sat,09.08.2003,Dortmund,4–0,Wolfsburg
2,Sat,09.08.2003,1860 München,1–1,Schalke
2,Sat,09.08.2003,Freiburg,2–2,Rostock
2,Sat,09.08.2003,Bremen,1–1,Mönchengladbach
2,Sat,09.08.2003,Bochum,1–1,Hamburg
2,Sun,10.08.2003,Frankfurt,1–2,Leverkusen
2,Sun,10.08.2003,Stuttgart,0–0,Hertha BSC
3,Sat,16.08.2003,Leverkusen,4–0,Hannover
3,Sat,16.08.2003,Hertha BSC,0–0,Freiburg
3,Sat,16.08.2003,Kaiserslautern,0–1,Bremen
3,Sat,16.08.2003,Rostock,3–0,Frankfurt
3,Sat,16.08.2003,Mönchengladbach,0–1,Stuttgart
3,Sat,16.08.2003,Bayern München,2–0,Bochum
3,Sat,16.08.2003,Dortmund,3–1,1860 München
3,Sun,17.08.2003,Wolfsburg,5–1,Hamburg
3,Sun,17.08.2003,Schalke,2–1,Köln
4,Sat,23.08.2003,Frankfurt,0–0,Hertha BSC
4,Sat,23.08.2003,Bremen,4–1,Schalke
4,Sat,23.08.2003,Freiburg,4–1,Mönchengladbach
4,Sat,23.08.2003,Bochum,1–0,Leverkusen
4,Sat,23.08.2003,Stuttgart,2–0,Kaiserslautern
4,Sat,23.08.2003,Köln,1–0,Dortmund
4,Sat,23.08.2003,1860 München,1–0,Wolfsburg
4,Sun,24.08.2003,Hamburg,0–2,Bayern München
4,Wed,27.08.2003,Hannover,3–3,Rostock
5,Sat,13.09.2003,Leverkusen,1–0,Hamburg
5,Sat,13.09.2003,Dortmund,2–1,Bremen
5,Sat,13.09.2003,1860 München,2–1,Köln
5,Sat,13.09.2003,Hertha BSC,2–3,Hannover
5,Sat,13.09.2003,Wolfsburg,3–2,Bayern München
5,Sat,13.09.2003,Rostock,0–2,Bochum
5,Sat,13.09.2003,Schalke,0–0,Stuttgart
5,Sun,14.09.2003,Mönchengladbach,0–2,Frankfurt
5,Sun,14.09.2003,Kaiserslautern,2–2,Freiburg
6,Sat,20.09.2003,Hannover,2–0,Mönchengladbach
6,Sat,20.09.2003,Stuttgart,1–0,Dortmund
6,Sat,20.09.2003,Bochum,2–2,Hertha BSC
6,Sat,20.09.2003,Köln,2–3,Wolfsburg
6,Sat,20.09.2003,Bayern München,3–3,Leverkusen
6,Sat,20.09.2003,Bremen,2–1,1860 München
6,Sat,20.09.2003,Freiburg,2–1,Schalke
6,Sun,21.09.2003,Frankfurt,1–3,Kaiserslautern
6,Sun,21.09.2003,Hamburg,2–1,Rostock
7,Sat,27.09.2003,Wolfsburg,0–1,Leverkusen
7,Sat,27.09.2003,1860 München,0–3,Stuttgart
7,Sat,27.09.2003,Dortmund,1–0,Freiburg
7,Sat,27.09.2003,Köln,1–4,Bremen
7,Sat,27.09.2003,Rostock,1–2,Bayern München
7,Sat,27.09.2003,Mönchengladbach,2–2,Bochum
7,Sat,27.09.2003,Kaiserslautern,1–0,Hannover
7,Sun,28.09.2003,Hertha BSC,1–1,Hamburg
7,Sun,28.09.2003,Schalke,1–1,Frankfurt
8,Sat,04.10.2003,Hamburg,2–1,Mönchengladbach
8,Sat,04.10.2003,Frankfurt,0–1,Dortmund
8,Sat,04.10.2003,Hannover,1–2,Schalke
8,Sat,04.10.2003,Bochum,4–0,Kaiserslautern
8,Sat,04.10.2003,Stuttgart,0–0,Köln
8,Sat,04.10.2003,Bayern München,4–1,Hertha BSC
8,Sat,04.10.2003,Freiburg,1–0,1860 München
8,Sun,05.10.2003,Leverkusen,3–0,Rostock
8,Sun,05.10.2003,Bremen,5–3,Wolfsburg
9,Sat,18.10.2003,1860 München,1–0,Frankfurt
9,Sat,18.10.2003,Köln,1–0,Freiburg
9,Sat,18.10.2003,Hertha BSC,1–4,Leverkusen
9,Sat,18.10.2003,Mönchengladbach,0–0,Bayern München
9,Sat,18.10.2003,Dortmund,6–2,Hannover
9,Sat,18.10.2003,Bremen,1–3,Stuttgart
9,Sat,18.10.2003,Wolfsburg,3–1,Rostock
9,Sun,19.10.2003,Schalke,0–2,Bochum
9,Sun,19.10.2003,Kaiserslautern,4–0,Hamburg
10,Sat,25.10.2003,Freiburg,2–4,Bremen
10,Sat,25.10.2003,Hamburg,2–2,Schalke
10,Sat,25.10.2003,Bayern München,4–1,Kaiserslautern
10,Sat,25.10.2003,Hannover,1–1,1860 München
10,Sat,25.10.2003,Frankfurt,2–0,Köln
10,Sat,25.10.2003,Rostock,0–1,Hertha BSC
10,Sat,25.10.2003,Stuttgart,1–0,Wolfsburg
10,Sun,26.10.2003,Bochum,3–0,Dortmund
10,Sun,26.10.2003,Leverkusen,1–0,Mönchengladbach
11,Sat,01.11.2003,Köln,1–2,Hannover
11,Sat,01.11.2003,1860 München,3–1,Bochum
11,Sat,01.11.2003,Mönchengladbach,1–1,Rostock
11,Sat,01.11.2003,Wolfsburg,3–0,Hertha BSC
11,Sat,01.11.2003,Bremen,3–1,Frankfurt
11,Sat,01.11.2003,Schalke,2–0,Bayern München
11,Sat,01.11.2003,Stuttgart,4–1,Freiburg
11,Sun,02.11.2003,Dortmund,3–2,Hamburg
11,Sun,02.11.2003,Kaiserslautern,0–0,Leverkusen
12,Sat,08.11.2003,Hamburg,3–1,1860 München
12,Sat,08.11.2003,Hertha BSC,2–1,Mönchengladbach
12,Sat,08.11.2003,Bochum,4–0,Köln
12,Sat,08.11.2003,Rostock,4–0,Kaiserslautern
12,Sat,08.11.2003,Frankfurt,0–2,Stuttgart
12,Sat,08.11.2003,Hannover,1–5,Bremen
12,Sat,08.11.2003,Freiburg,3–2,Wolfsburg
12,Sun,09.11.2003,Leverkusen,3–1,Schalke
12,Sun,09.11.2003,Bayern München,4–1,Dortmund
13,Sat,22.11.2003,Bremen,3–1,Bochum
13,Sat,22.11.2003,Stuttgart,3–1,Hannover
13,Sat,22.11.2003,Schalke,0–1,Rostock
13,Sat,22.11.2003,Dortmund,2–2,Leverkusen
13,Sat,22.11.2003,1860 München,0–1,Bayern München
13,Sat,22.11.2003,Köln,0–1,Hamburg
13,Sat,22.11.2003,Wolfsburg,1–3,Mönchengladbach
13,Sun,23.11.2003,Kaiserslautern,4–2,Hertha BSC
13,Sun,23.11.2003,Freiburg,1–0,Frankfurt
14,Sat,29.11.2003,Bochum,0–0,Stuttgart
14,Sat,29.11.2003,Bayern München,2–2,Köln
14,Sat,29.11.2003,Hamburg,1–1,Bremen
14,Sat,29.11.2003,Leverkusen,2–2,1860 München
14,Sat,29.11.2003,Hannover,3–0,Freiburg
14,Sat,29.11.2003,Mönchengladbach,2–1,Kaiserslautern
14,Sat,29.11.2003,Frankfurt,3–2,Wolfsburg
14,Sun,30.11.2003,Hertha BSC,1–3,Schalke
14,Sun,30.11.2003,Rostock,2–1,Dortmund
15,Sat,06.12.2003,Wolfsburg,4–1,Kaiserslautern
15,Sat,06.12.2003,Stuttgart,0–0,Hamburg
15,Sat,06.12.2003,Dortmund,1–1,Hertha BSC
15,Sat,06.12.2003,Bremen,1–1,Bayern München
15,Sat,06.12.2003,Freiburg,4–2,Bochum
15,Sat,06.12.2003,1860 München,1–4,Rostock
15,Sat,06.12.2003,Frankfurt,2–2,Hannover
15,Sun,07.12.2003,Köln,0–0,Leverkusen
15,Sun,07.12.2003,Schalke,2–1,Mönchengladbach
16,Sat,13.12.2003,Bayern München,1–0,Stuttgart
16,Sat,13.12.2003,Kaiserslautern,0–2,Schalke
16,Sat,13.12.2003,Hertha BSC,1–1,1860 München
16,Sat,13.12.2003,Rostock,1–1,Köln
16,Sat,13.12.2003,Leverkusen,1–3,Bremen
16,Sat,13.12.2003,Hamburg,4–1,Freiburg
16,Sat,13.12.2003,Bochum,1–0,Frankfurt
16,Sun,14.12.2003,Mönchengladbach,2–1,Dortmund
16,Sun,14.12.2003,Wolfsburg,2–1,Hannover
17,Tue,16.12.2003,Bremen,3–0,Rostock
17,Tue,16.12.2003,Freiburg,0–6,Bayern München
17,Tue,16.12.2003,Frankfurt,2–3,Hamburg
17,Tue,16.12.2003,Köln,3–0,Hertha BSC
17,Wed,17.12.2003,1860 München,1–2,Mönchengladbach
17,Wed,17.12.2003,Dortmund,1–1,Kaiserslautern
17,Wed,17.12.2003,Schalke,1–1,Wolfsburg
17,Wed,17.12.2003,Hannover,2–2,Bochum
17,Wed,17.12.2003,Stuttgart,2–3,Leverkusen
18,Fri,30.01.2004,Dortmund,0–1,Schalke
18,Sat,31.01.2004,Bochum,1–0,Wolfsburg
18,Sat,31.01.2004,Frankfurt,1–1,Bayern München
18,Sat,31.01.2004,1860 München,2–1,Kaiserslautern
18,Sat,31.01.2004,Bremen,4–0,Hertha BSC
18,Sat,31.01.2004,Köln,1–0,Mönchengladbach
18,Sat,31.01.2004,Stuttgart,2–0,Rostock
18,Sun,01.02.2004,Freiburg,1–0,Leverkusen
18,Sun,01.02.2004,Hannover,3–2,Hamburg
19,Sat,07.02.2004,Hamburg,1–1,Bochum
19,Sat,07.02.2004,Leverkusen,1–2,Frankfurt
19,Sat,07.02.2004,Rostock,4–1,Freiburg
19,Sat,07.02.2004,Wolfsburg,2–4,Dortmund
19,Sat,07.02.2004,Schalke,0–0,1860 München
19,Sat,07.02.2004,Mönchengladbach,1–2,Bremen
19,Sat,07.02.2004,Kaiserslautern,1–0,Köln
19,Sun,08.02.2004,Bayern München,3–1,Hannover
19,Sun,08.02.2004,Hertha BSC,1–0,Stuttgart
20,Sat,14.02.2004,Stuttgart,1–1,Mönchengladbach
20,Sat,14.02.2004,Köln,0–2,Schalke
20,Sat,14.02.2004,Frankfurt,1–1,Rostock
20,Sat,14.02.2004,Hamburg,2–0,Wolfsburg
20,Sat,14.02.2004,Hannover,2–2,Leverkusen
20,Sat,14.02.2004,Bochum,1–0,Bayern München
20,Sat,14.02.2004,Freiburg,2–3,Hertha BSC
20,Sun,15.02.2004,Bremen,1–0,Kaiserslautern
20,Sun,15.02.2004,1860 München,0–2,Dortmund
21,Sat,21.02.2004,Bayern München,1–0,Hamburg
21,Sat,21.02.2004,Rostock,3–1,Hannover
21,Sat,21.02.2004,Kaiserslautern,1–0,Stuttgart
21,Sat,21.02.2004,Leverkusen,1–3,Bochum
21,Sat,21.02.2004,Wolfsburg,3–1,1860 München
21,Sat,21.02.2004,Mönchengladbach,2–2,Freiburg
21,Sat,21.02.2004,Schalke,0–0,Bremen
21,Sun,22.02.2004,Hertha BSC,1–2,Frankfurt
21,Sun,22.02.2004,Dortmund,1–0,Köln
22,Sat,28.02.2004,Hamburg,3–1,Leverkusen
22,Sat,28.02.2004,Bremen,2–0,Dortmund
22,Sat,28.02.2004,Bayern München,2–0,Wolfsburg
22,Sat,28.02.2004,Bochum,0–0,Rostock
22,Sat,28.02.2004,Köln,1–3,1860 München
22,Sat,28.02.2004,Stuttgart,0–0,Schalke
22,Sat,28.02.2004,Frankfurt,3–1,Mönchengladbach
22,Sun,29.02.2004,Hannover,1–3,Hertha BSC
22,Sun,29.02.2004,Freiburg,1–0,Kaiserslautern
23,Sat,06.03.2004,Rostock,3–0,Hamburg
23,Sat,06.03.2004,Kaiserslautern,1–0,Frankfurt
23,Sat,06.03.2004,Schalke,3–0,Freiburg
23,Sat,06.03.2004,Mönchengladbach,1–0,Hannover
23,Sat,06.03.2004,Leverkusen,1–3,Bayern München
23,Sat,06.03.2004,Hertha BSC,1–1,Bochum
23,Sat,06.03.2004,Dortmund,0–2,Stuttgart
23,Sun,07.03.2004,Wolfsburg,2–0,Köln
23,Sun,07.03.2004,1860 München,0–2,Bremen
24,Sat,13.03.2004,Bayern München,3–3,Rostock
24,Sat,13.03.2004,Freiburg,2–2,Dortmund
24,Sat,13.03.2004,Bremen,3–2,Köln
24,Sat,13.03.2004,Hamburg,2–0,Hertha BSC
24,Sat,13.03.2004,Frankfurt,3–0,Schalke
24,Sat,13.03.2004,Leverkusen,4–2,Wolfsburg
24,Sat,13.03.2004,Hannover,0–1,Kaiserslautern
24,Sun,14.03.2004,Bochum,1–0,Mönchengladbach
24,Sun,14.03.2004,Stuttgart,2–0,1860 München
25,Sat,20.03.2004,Köln,2–2,Stuttgart
25,Sat,20.03.2004,Dortmund,2–0,Frankfurt
25,Sat,20.03.2004,Kaiserslautern,2–2,Bochum
25,Sat,20.03.2004,Rostock,0–2,Leverkusen
25,Sat,20.03.2004,Mönchengladbach,3–0,Hamburg
25,Sat,20.03.2004,Schalke,2–2,Hannover
25,Sat,20.03.2004,Hertha BSC,1–1,Bayern München
25,Sun,21.03.2004,Wolfsburg,0–2,Bremen
25,Sun,21.03.2004,1860 München,1–1,Freiburg
26,Sat,27.03.2004,Rostock,3–1,Wolfsburg
26,Sat,27.03.2004,Freiburg,3–0,Köln
26,Sat,27.03.2004,Leverkusen,4–1,Hertha BSC
26,Sat,27.03.2004,Hannover,1–1,Dortmund
26,Sat,27.03.2004,Frankfurt,0–3,1860 München
26,Sat,27.03.2004,Bochum,1–2,Schalke
26,Sat,27.03.2004,Bayern München,5–2,Mönchengladbach
26,Sun,28.03.2004,Hamburg,3–2,Kaiserslautern
26,Sun,28.03.2004,Stuttgart,4–4,Bremen
27,Sat,03.04.2004,Mönchengladbach,0–0,Leverkusen
27,Sat,03.04.2004,Köln,2–0,Frankfurt
27,Sat,03.04.2004,Hertha BSC,1–1,Rostock
27,Sat,03.04.2004,Wolfsburg,1–5,Stuttgart
27,Sat,03.04.2004,Schalke,4–1,Hamburg
27,Sat,03.04.2004,1860 München,0–2,Hannover
27,Sat,03.04.2004,Kaiserslautern,0–2,Bayern München
27,Sun,04.04.2004,Dortmund,4–1,Bochum
27,Sun,04.04.2004,Bremen,1–1,Freiburg
28,Sat,10.04.2004,Bochum,4–0,1860 München
28,Sat,10.04.2004,Leverkusen,6–0,Kaiserslautern
28,Sat,10.04.2004,Bayern München,2–1,Schalke
28,Sat,10.04.2004,Hamburg,0–2,Dortmund
28,Sat,10.04.2004,Hertha BSC,1–0,Wolfsburg
28,Sat,10.04.2004,Frankfurt,0–1,Bremen
28,Sat,10.04.2004,Rostock,1–2,Mönchengladbach
28,Sun,11.04.2004,Freiburg,0–1,Stuttgart
28,Sun,11.04.2004,Hannover,1–0,Köln
29,Sat,17.04.2004,Stuttgart,3–1,Frankfurt
29,Sat,17.04.2004,Dortmund,2–0,Bayern München
29,Sat,17.04.2004,Mönchengladbach,1–1,Hertha BSC
29,Sat,17.04.2004,Kaiserslautern,3–2,Rostock
29,Sat,17.04.2004,Schalke,2–3,Leverkusen
29,Sat,17.04.2004,Wolfsburg,4–0,Freiburg
29,Sat,17.04.2004,1860 München,1–2,Hamburg
29,Sun,18.04.2004,Köln,1–2,Bochum
29,Sun,18.04.2004,Bremen,0–0,Hannover
30,Sat,24.04.2004,Leverkusen,3–0,Dortmund
30,Sat,24.04.2004,Frankfurt,3–0,Freiburg
30,Sat,24.04.2004,Hannover,0–1,Stuttgart
30,Sat,24.04.2004,Hertha BSC,3–0,Kaiserslautern
30,Sat,24.04.2004,Mönchengladbach,0–2,Wolfsburg
30,Sat,24.04.2004,Rostock,3–1,Schalke
30,Sat,24.04.2004,Hamburg,4–2,Köln
30,Sun,25.04.2004,Bochum,0–0,Bremen
30,Sun,25.04.2004,Bayern München,1–0,1860 München
31,Sat,01.05.2004,Kaiserslautern,2–2,Mönchengladbach
31,Sat,01.05.2004,Köln,1–2,Bayern München
31,Sat,01.05.2004,Bremen,6–0,Hamburg
31,Sat,01.05.2004,Wolfsburg,1–0,Frankfurt
31,Sat,01.05.2004,Dortmund,4–1,Rostock
31,Sat,01.05.2004,1860 München,1–1,Leverkusen
31,Sat,01.05.2004,Freiburg,4–1,Hannover
31,Sun,02.05.2004,Stuttgart,1–1,Bochum
31,Sun,02.05.2004,Schalke,3–0,Hertha BSC
32,Sat,08.05.2004,Mönchengladbach,2–0,Schalke
32,Sat,08.05.2004,Bayern München,1–3,Bremen
32,Sat,08.05.2004,Leverkusen,2–0,Köln
32,Sat,08.05.2004,Hamburg,2–1,Stuttgart
32,Sat,08.05.2004,Hannover,3–0,Frankfurt
32,Sat,08.05.2004,Kaiserslautern,3–2,Wolfsburg
32,Sat,08.05.2004,Hertha BSC,6–2,Dortmund
32,Sun,09.05.2004,Bochum,3–0,Freiburg
32,Sun,09.05.2004,Rostock,3–0,1860 München
33,Sat,15.05.2004,Freiburg,0–0,Hamburg
33,Sat,15.05.2004,Frankfurt,3–2,Bochum
33,Sat,15.05.2004,Dortmund,3–1,Mönchengladbach
33,Sat,15.05.2004,Schalke,4–1,Kaiserslautern
33,Sat,15.05.2004,Stuttgart,3–1,Bayern München
33,Sat,15.05.2004,1860 München,1–1,Hertha BSC
33,Sat,15.05.2004,Köln,4–0,Rostock
33,Sat,15.05.2004,Bremen,2–6,Leverkusen
33,Sat,15.05.2004,Hannover,0–0,Wolfsburg
34,Sat,22.05.2004,Bochum,3–1,Hannover
34,Sat,22.05.2004,Hertha BSC,3–1,Köln
34,Sat,22.05.2004,Leverkusen,2–0,Stuttgart
34,Sat,22.05.2004,Mönchengladbach,3–1,1860 München
34,Sat,22.05.2004,Rostock,3–1,Bremen
34,Sat,22.05.2004,Hamburg,2–1,Frankfurt
34,Sat,22.05.2004,Kaiserslautern,1–1,Dortmund
34,Sat,22.05.2004,Bayern München,2–0,Freiburg
34,Sat,22.05.2004,Wolfsburg,1–1,Schalke
