1,Fri,06.08.2004,Bremen,1–0,Schalke
1,Sat,07.08.2004,Freiburg,0–0,Rostock
1,Sat,07.08.2004,Hamburg,0–2,Bayern München
1,Sat,07.08.2004,Leverkusen,2–1,Hannover
1,Sat,07.08.2004,Dortmund,1–2,Wolfsburg
1,Sat,07.08.2004,Hertha BSC,2–2,Bochum
1,Sat,07.08.2004,Kaiserslautern,1–3,Nürnberg
1,Sun,08.08.2004,Stuttgart,4–2,Aachen 05
1,Sun,08.08.2004,Arminia,0–0,Mönchengladbach
2,Sat,14.08.2004,Aachen 05,2–1,Hamburg
2,Sat,14.08.2004,Nürnberg,1–1,Stuttgart
2,Sat,14.08.2004,Schalke,2–1,Kaiserslautern
2,Sat,14.08.2004,Bayern München,1–1,Hertha BSC
2,Sat,14.08.2004,Mönchengladbach,2–3,Dortmund
2,Sat,14.08.2004,Rostock,0–4,Bremen
2,Sun,15.08.2004,Bochum,2–2,Leverkusen
2,Sun,15.08.2004,Wolfsburg,0–1,Freiburg
3,Sat,28.08.2004,Freiburg,1–1,Mönchengladbach
3,Sat,28.08.2004,Arminia,1–2,Bochum
3,Sat,28.08.2004,Hertha BSC,1–1,Aachen 05
3,Sat,28.08.2004,Leverkusen,4–1,Bayern München
3,Sat,28.08.2004,Kaiserslautern,2–3,Stuttgart
3,Sat,28.08.2004,Hamburg,4–3,Nürnberg
3,Sat,28.08.2004,Schalke,0–2,Rostock
3,Sun,29.08.2004,Bremen,1–2,Wolfsburg
3,Sun,29.08.2004,Dortmund,1–1,Hannover
4,Sat,11.09.2004,Nürnberg,0–0,Hertha BSC
4,Sat,11.09.2004,Stuttgart,2–0,Hamburg
4,Sat,11.09.2004,Wolfsburg,3–0,Schalke
4,Sat,11.09.2004,Bochum,2–2,Dortmund
4,Sat,11.09.2004,Bayern München,1–0,Arminia
4,Sat,11.09.2004,Mönchengladbach,3–1,Bremen
4,Sat,11.09.2004,Aachen 05,2–0,Leverkusen
4,Sun,12.09.2004,Hannover,2–2,Freiburg
4,Sun,12.09.2004,Rostock,2–3,Kaiserslautern
5,Sat,18.09.2004,Schalke,3–2,Mönchengladbach
5,Sat,18.09.2004,Rostock,1–2,Wolfsburg
5,Sat,18.09.2004,Dortmund,2–2,Bayern München
5,Sat,18.09.2004,Leverkusen,2–2,Nürnberg
5,Sat,18.09.2004,Arminia,1–1,Aachen 05
5,Sat,18.09.2004,Kaiserslautern,2–1,Hamburg
5,Sat,18.09.2004,Bremen,3–0,Hannover
5,Sun,19.09.2004,Hertha BSC,0–0,Stuttgart
5,Sun,19.09.2004,Freiburg,1–1,Bochum
6,Sat,25.09.2004,Bochum,1–4,Bremen
6,Sat,25.09.2004,Mönchengladbach,2–2,Rostock
6,Sat,25.09.2004,Hannover,1–0,Schalke
6,Sat,25.09.2004,Nürnberg,1–2,Arminia
6,Sat,25.09.2004,Stuttgart,3–0,Leverkusen
6,Sat,25.09.2004,Bayern München,3–1,Freiburg
6,Sat,25.09.2004,Wolfsburg,2–1,Kaiserslautern
6,Sun,26.09.2004,Aachen 05,1–1,Dortmund
6,Sun,26.09.2004,Hamburg,2–1,Hertha BSC
2,Tue,28.09.2004,Hannover,0–1,Arminia
7,Sat,02.10.2004,Bremen,1–2,Bayern München
7,Sat,02.10.2004,Rostock,1–3,Hannover
7,Sat,02.10.2004,Kaiserslautern,0–2,Hertha BSC
7,Sat,02.10.2004,Leverkusen,3–0,Hamburg
7,Sat,02.10.2004,Freiburg,1–2,Aachen 05
7,Sat,02.10.2004,Wolfsburg,2–1,Mönchengladbach
7,Sat,02.10.2004,Dortmund,2–2,Nürnberg
7,Sun,03.10.2004,Arminia,0–2,Stuttgart
7,Sun,03.10.2004,Schalke,3–2,Bochum
8,Sat,16.10.2004,Bayern München,0–1,Schalke
8,Sat,16.10.2004,Aachen 05,2–1,Bremen
8,Sat,16.10.2004,Hertha BSC,3–1,Leverkusen
8,Sat,16.10.2004,Bochum,0–1,Rostock
8,Sat,16.10.2004,Hamburg,0–2,Arminia
8,Sat,16.10.2004,Stuttgart,2–0,Dortmund
8,Sat,16.10.2004,Nürnberg,3–0,Freiburg
8,Sun,17.10.2004,Hannover,3–0,Wolfsburg
8,Sun,17.10.2004,Mönchengladbach,2–0,Kaiserslautern
9,Sat,23.10.2004,Kaiserslautern,0–0,Leverkusen
9,Sat,23.10.2004,Arminia,1–0,Hertha BSC
9,Sat,23.10.2004,Bremen,4–1,Nürnberg
9,Sat,23.10.2004,Wolfsburg,3–0,Bochum
9,Sat,23.10.2004,Mönchengladbach,0–2,Hannover
9,Sat,23.10.2004,Dortmund,0–2,Hamburg
9,Sat,23.10.2004,Rostock,0–2,Bayern München
9,Sun,24.10.2004,Freiburg,2–0,Stuttgart
9,Sun,24.10.2004,Schalke,2–1,Aachen 05
10,Tue,26.10.2004,Bayern München,2–0,Wolfsburg
10,Tue,26.10.2004,Hannover,3–1,Kaiserslautern
10,Tue,26.10.2004,Hertha BSC,0–1,Dortmund
10,Tue,26.10.2004,Bochum,3–0,Mönchengladbach
10,Wed,27.10.2004,Hamburg,4–0,Freiburg
10,Wed,27.10.2004,Stuttgart,1–2,Bremen
10,Wed,27.10.2004,Aachen 05,3–1,Rostock
10,Wed,27.10.2004,Leverkusen,3–2,Arminia
10,Wed,27.10.2004,Nürnberg,0–2,Schalke
11,Sat,30.10.2004,Freiburg,1–3,Hertha BSC
11,Sat,30.10.2004,Mönchengladbach,2–0,Bayern München
11,Sat,30.10.2004,Wolfsburg,4–3,Aachen 05
11,Sat,30.10.2004,Schalke,3–2,Stuttgart
11,Sat,30.10.2004,Hannover,3–0,Bochum
11,Sat,30.10.2004,Bremen,1–1,Hamburg
11,Sat,30.10.2004,Dortmund,1–0,Leverkusen
11,Sun,31.10.2004,Kaiserslautern,2–1,Arminia
11,Sun,31.10.2004,Rostock,0–2,Nürnberg
12,Sat,06.11.2004,Nürnberg,4–0,Wolfsburg
12,Sat,06.11.2004,Leverkusen,4–1,Freiburg
12,Sat,06.11.2004,Arminia,1–0,Dortmund
12,Sat,06.11.2004,Bayern München,3–0,Hannover
12,Sat,06.11.2004,Hertha BSC,1–1,Bremen
12,Sat,06.11.2004,Bochum,1–1,Kaiserslautern
12,Sat,06.11.2004,Aachen 05,1–1,Mönchengladbach
12,Sun,07.11.2004,Stuttgart,4–0,Rostock
12,Sun,07.11.2004,Hamburg,1–2,Schalke
13,Sat,13.11.2004,Wolfsburg,3–0,Stuttgart
13,Sat,13.11.2004,Schalke,1–3,Hertha BSC
13,Sat,13.11.2004,Freiburg,2–3,Arminia
13,Sat,13.11.2004,Kaiserslautern,1–0,Dortmund
13,Sat,13.11.2004,Bremen,2–2,Leverkusen
13,Sat,13.11.2004,Hannover,2–0,Aachen 05
13,Sat,13.11.2004,Mönchengladbach,2–1,Nürnberg
13,Sun,14.11.2004,Rostock,0–6,Hamburg
13,Sun,14.11.2004,Bochum,1–3,Bayern München
14,Sat,20.11.2004,Aachen 05,1–0,Bochum
14,Sat,20.11.2004,Arminia,2–1,Bremen
14,Sat,20.11.2004,Dortmund,2–0,Freiburg
14,Sat,20.11.2004,Hertha BSC,1–1,Rostock
14,Sat,20.11.2004,Stuttgart,1–0,Mönchengladbach
14,Sat,20.11.2004,Leverkusen,0–3,Schalke
14,Sat,20.11.2004,Bayern München,3–1,Kaiserslautern
14,Sun,21.11.2004,Hamburg,3–1,Wolfsburg
14,Sun,21.11.2004,Nürnberg,1–1,Hannover
15,Sat,27.11.2004,Wolfsburg,2–3,Hertha BSC
15,Sat,27.11.2004,Bochum,3–1,Nürnberg
15,Sat,27.11.2004,Bayern München,4–2,Aachen 05
15,Sat,27.11.2004,Mönchengladbach,1–3,Hamburg
15,Sat,27.11.2004,Rostock,0–2,Leverkusen
15,Sat,27.11.2004,Bremen,2–0,Dortmund
15,Sat,27.11.2004,Kaiserslautern,3–0,Freiburg
15,Sun,28.11.2004,Hannover,0–0,Stuttgart
15,Sun,28.11.2004,Schalke,2–1,Arminia
16,Sat,04.12.2004,Leverkusen,2–1,Wolfsburg
16,Sat,04.12.2004,Stuttgart,5–2,Bochum
16,Sat,04.12.2004,Hamburg,0–2,Hannover
16,Sat,04.12.2004,Freiburg,0–6,Bremen
16,Sat,04.12.2004,Nürnberg,2–2,Bayern München
16,Sat,04.12.2004,Hertha BSC,6–0,Mönchengladbach
16,Sat,04.12.2004,Arminia,1–1,Rostock
16,Sun,05.12.2004,Dortmund,0–1,Schalke
16,Sun,05.12.2004,Kaiserslautern,2–0,Aachen 05
17,Sat,11.12.2004,Schalke,1–1,Freiburg
17,Sat,11.12.2004,Aachen 05,0–1,Nürnberg
17,Sat,11.12.2004,Bayern München,2–2,Stuttgart
17,Sat,11.12.2004,Hannover,0–1,Hertha BSC
17,Sat,11.12.2004,Rostock,1–1,Dortmund
17,Sat,11.12.2004,Bremen,1–1,Kaiserslautern
17,Sat,11.12.2004,Bochum,1–2,Hamburg
17,Sun,12.12.2004,Mönchengladbach,1–1,Leverkusen
17,Sun,12.12.2004,Wolfsburg,5–0,Arminia
18,Fri,21.01.2005,Bayern München,3–0,Hamburg
18,Sat,22.01.2005,Rostock,0–0,Freiburg
18,Sat,22.01.2005,Aachen 05,2–3,Stuttgart
18,Sat,22.01.2005,Schalke,2–1,Bremen
18,Sat,22.01.2005,Nürnberg,1–3,Kaiserslautern
18,Sat,22.01.2005,Wolfsburg,1–2,Dortmund
18,Sat,22.01.2005,Mönchengladbach,1–0,Arminia
18,Sun,23.01.2005,Hannover,0–3,Leverkusen
18,Sun,23.01.2005,Bochum,2–2,Hertha BSC
19,Sat,29.01.2005,Arminia,0–1,Hannover
19,Sat,29.01.2005,Stuttgart,2–4,Nürnberg
19,Sat,29.01.2005,Kaiserslautern,2–0,Schalke
19,Sat,29.01.2005,Hamburg,2–1,Aachen 05
19,Sat,29.01.2005,Leverkusen,4–0,Bochum
19,Sat,29.01.2005,Dortmund,1–1,Mönchengladbach
19,Sat,29.01.2005,Freiburg,1–0,Wolfsburg
19,Sun,30.01.2005,Bremen,3–2,Rostock
19,Sun,30.01.2005,Hertha BSC,0–0,Bayern München
20,Sat,05.02.2005,Hannover,1–3,Dortmund
20,Sat,05.02.2005,Bayern München,2–0,Leverkusen
20,Sat,05.02.2005,Nürnberg,1–3,Hamburg
20,Sat,05.02.2005,Rostock,2–2,Schalke
20,Sat,05.02.2005,Stuttgart,1–1,Kaiserslautern
20,Sat,05.02.2005,Aachen 05,0–3,Hertha BSC
20,Sat,05.02.2005,Bochum,1–1,Arminia
20,Sun,06.02.2005,Wolfsburg,2–3,Bremen
20,Sun,06.02.2005,Mönchengladbach,3–2,Freiburg
21,Sat,12.02.2005,Hertha BSC,2–1,Nürnberg
21,Sat,12.02.2005,Freiburg,0–0,Hannover
21,Sat,12.02.2005,Kaiserslautern,2–1,Rostock
21,Sat,12.02.2005,Schalke,3–0,Wolfsburg
21,Sat,12.02.2005,Bremen,2–0,Mönchengladbach
21,Sat,12.02.2005,Dortmund,1–0,Bochum
21,Sat,12.02.2005,Hamburg,2–1,Stuttgart
21,Sun,13.02.2005,Arminia,3–1,Bayern München
21,Sun,13.02.2005,Leverkusen,2–0,Aachen 05
22,Sat,19.02.2005,Hannover,1–4,Bremen
22,Sat,19.02.2005,Bochum,3–1,Freiburg
22,Sat,19.02.2005,Nürnberg,2–4,Leverkusen
22,Sat,19.02.2005,Bayern München,5–0,Dortmund
22,Sat,19.02.2005,Wolfsburg,4–0,Rostock
22,Sat,19.02.2005,Hamburg,2–1,Kaiserslautern
22,Sat,19.02.2005,Aachen 05,0–0,Arminia
22,Sun,20.02.2005,Mönchengladbach,1–3,Schalke
22,Sun,20.02.2005,Stuttgart,1–0,Hertha BSC
23,Sat,26.02.2005,Dortmund,3–0,Aachen 05
23,Sat,26.02.2005,Bremen,4–0,Bochum
23,Sat,26.02.2005,Freiburg,0–1,Bayern München
23,Sat,26.02.2005,Rostock,0–0,Mönchengladbach
23,Sat,26.02.2005,Arminia,3–1,Nürnberg
23,Sat,26.02.2005,Kaiserslautern,0–0,Wolfsburg
23,Sat,26.02.2005,Hertha BSC,4–1,Hamburg
23,Sun,27.02.2005,Schalke,1–0,Hannover
23,Sun,27.02.2005,Leverkusen,1–1,Stuttgart
24,Sat,05.03.2005,Bayern München,1–0,Bremen
24,Sat,05.03.2005,Bochum,0–2,Schalke
24,Sat,05.03.2005,Hannover,0–1,Rostock
24,Sat,05.03.2005,Aachen 05,5–0,Freiburg
24,Sat,05.03.2005,Mönchengladbach,1–0,Wolfsburg
24,Sat,05.03.2005,Stuttgart,2–1,Arminia
24,Sat,05.03.2005,Hamburg,1–0,Leverkusen
24,Sun,06.03.2005,Nürnberg,2–2,Dortmund
24,Sun,06.03.2005,Hertha BSC,1–1,Kaiserslautern
25,Sat,12.03.2005,Bremen,0–0,Aachen 05
25,Sat,12.03.2005,Freiburg,2–3,Nürnberg
25,Sat,12.03.2005,Wolfsburg,1–0,Hannover
25,Sat,12.03.2005,Kaiserslautern,1–0,Mönchengladbach
25,Sat,12.03.2005,Rostock,3–1,Bochum
25,Sat,12.03.2005,Leverkusen,3–3,Hertha BSC
25,Sat,12.03.2005,Arminia,3–4,Hamburg
25,Sun,13.03.2005,Dortmund,0–2,Stuttgart
25,Sun,13.03.2005,Schalke,1–0,Bayern München
26,Sat,19.03.2005,Hertha BSC,3–0,Arminia
26,Sat,19.03.2005,Hannover,2–1,Mönchengladbach
26,Sat,19.03.2005,Leverkusen,2–0,Kaiserslautern
26,Sat,19.03.2005,Bochum,5–1,Wolfsburg
26,Sat,19.03.2005,Nürnberg,1–2,Bremen
26,Sat,19.03.2005,Bayern München,3–1,Rostock
26,Sat,19.03.2005,Hamburg,2–3,Dortmund
26,Sun,20.03.2005,Stuttgart,1–0,Freiburg
26,Sun,20.03.2005,Aachen 05,2–1,Schalke
27,Sat,02.04.2005,Rostock,2–0,Aachen 05
27,Sat,02.04.2005,Bremen,1–2,Stuttgart
27,Sat,02.04.2005,Wolfsburg,0–3,Bayern München
27,Sat,02.04.2005,Kaiserslautern,0–2,Hannover
27,Sat,02.04.2005,Arminia,1–0,Leverkusen
27,Sat,02.04.2005,Schalke,4–1,Nürnberg
27,Sat,02.04.2005,Freiburg,1–1,Hamburg
27,Sun,03.04.2005,Mönchengladbach,2–2,Bochum
27,Sun,03.04.2005,Dortmund,2–1,Hertha BSC
28,Sat,09.04.2005,Bochum,1–0,Hannover
28,Sat,09.04.2005,Stuttgart,3–0,Schalke
28,Sat,09.04.2005,Aachen 05,0–2,Wolfsburg
28,Sat,09.04.2005,Bayern München,2–1,Mönchengladbach
28,Sat,09.04.2005,Hertha BSC,3–1,Freiburg
28,Sat,09.04.2005,Leverkusen,0–1,Dortmund
28,Sat,09.04.2005,Hamburg,1–2,Bremen
28,Sun,10.04.2005,Nürnberg,3–0,Rostock
28,Sun,10.04.2005,Arminia,0–2,Kaiserslautern
29,Sat,16.04.2005,Mönchengladbach,1–1,Aachen 05
29,Sat,16.04.2005,Schalke,1–2,Hamburg
29,Sat,16.04.2005,Freiburg,1–3,Leverkusen
29,Sat,16.04.2005,Hannover,0–1,Bayern München
29,Sat,16.04.2005,Rostock,2–1,Stuttgart
29,Sat,16.04.2005,Bremen,0–1,Hertha BSC
29,Sat,16.04.2005,Dortmund,1–1,Arminia
29,Sun,17.04.2005,Wolfsburg,0–1,Nürnberg
29,Sun,17.04.2005,Kaiserslautern,1–2,Bochum
30,Sat,23.04.2005,Aachen 05,2–0,Hannover
30,Sat,23.04.2005,Hertha BSC,4–1,Schalke
30,Sat,23.04.2005,Stuttgart,0–0,Wolfsburg
30,Sat,23.04.2005,Bayern München,3–1,Bochum
30,Sat,23.04.2005,Dortmund,4–2,Kaiserslautern
30,Sat,23.04.2005,Arminia,3–1,Freiburg
30,Sat,23.04.2005,Hamburg,3–0,Rostock
30,Sun,24.04.2005,Nürnberg,0–0,Mönchengladbach
30,Sun,24.04.2005,Leverkusen,2–1,Bremen
31,Sat,30.04.2005,Bremen,3–0,Arminia
31,Sat,30.04.2005,Freiburg,2–2,Dortmund
31,Sat,30.04.2005,Bochum,2–6,Aachen 05
31,Sat,30.04.2005,Schalke,3–3,Leverkusen
31,Sat,30.04.2005,Kaiserslautern,0–4,Bayern München
31,Sat,30.04.2005,Mönchengladbach,2–0,Stuttgart
31,Sat,30.04.2005,Rostock,2–1,Hertha BSC
31,Sun,01.05.2005,Wolfsburg,1–0,Hamburg
31,Sun,01.05.2005,Hannover,1–0,Nürnberg
32,Sat,07.05.2005,Hertha BSC,3–1,Wolfsburg
32,Sat,07.05.2005,Freiburg,1–2,Kaiserslautern
32,Sat,07.05.2005,Stuttgart,1–0,Hannover
32,Sat,07.05.2005,Nürnberg,2–1,Bochum
32,Sat,07.05.2005,Arminia,0–2,Schalke
32,Sat,07.05.2005,Leverkusen,3–0,Rostock
32,Sat,07.05.2005,Aachen 05,2–4,Bayern München
32,Sun,08.05.2005,Hamburg,0–0,Mönchengladbach
32,Sun,08.05.2005,Dortmund,1–0,Bremen
33,Sat,14.05.2005,Aachen 05,3–2,Kaiserslautern
33,Sat,14.05.2005,Bochum,2–0,Stuttgart
33,Sat,14.05.2005,Bremen,4–1,Freiburg
33,Sat,14.05.2005,Rostock,1–1,Arminia
33,Sat,14.05.2005,Bayern München,6–3,Nürnberg
33,Sat,14.05.2005,Mönchengladbach,0–0,Hertha BSC
33,Sat,14.05.2005,Schalke,1–2,Dortmund
33,Sat,14.05.2005,Wolfsburg,2–2,Leverkusen
33,Sat,14.05.2005,Hannover,2–1,Hamburg
34,Sat,21.05.2005,Kaiserslautern,1–2,Bremen
34,Sat,21.05.2005,Nürnberg,1–2,Aachen 05
34,Sat,21.05.2005,Hamburg,0–1,Bochum
34,Sat,21.05.2005,Leverkusen,5–1,Mönchengladbach
34,Sat,21.05.2005,Arminia,1–2,Wolfsburg
34,Sat,21.05.2005,Hertha BSC,0–0,Hannover
34,Sat,21.05.2005,Freiburg,2–3,Schalke
34,Sat,21.05.2005,Stuttgart,1–3,Bayern München
34,Sat,21.05.2005,Dortmund,2–1,Rostock
