1,Fri,20.08.2010,Bayern München,2–1,Wolfsburg
1,Sat,21.08.2010,Hannover,2–1,Frankfurt
1,Sat,21.08.2010,Freiburg,1–3,St. Pauli
1,Sat,21.08.2010,Hoffenheim,4–1,Bremen
1,Sat,21.08.2010,Köln,1–3,Kaiserslautern
1,Sat,21.08.2010,Mönchengladbach,1–1,Nürnberg
1,Sat,21.08.2010,Hamburg,2–1,Schalke
1,Sun,22.08.2010,Dortmund,0–2,Leverkusen
1,Sun,22.08.2010,Aachen 05,2–0,Stuttgart
2,Fri,27.08.2010,Kaiserslautern,2–0,Bayern München
2,Sat,28.08.2010,Schalke,1–2,Hannover
2,Sat,28.08.2010,Wolfsburg,3–4,Aachen 05
2,Sat,28.08.2010,Nürnberg,1–2,Freiburg
2,Sat,28.08.2010,Frankfurt,1–3,Hamburg
2,Sat,28.08.2010,Bremen,4–2,Köln
2,Sat,28.08.2010,St. Pauli,0–1,Hoffenheim
2,Sun,29.08.2010,Stuttgart,1–3,Dortmund
2,Sun,29.08.2010,Leverkusen,3–6,Mönchengladbach
3,Fri,10.09.2010,Hoffenheim,2–0,Schalke
3,Sat,11.09.2010,Hannover,2–2,Leverkusen
3,Sat,11.09.2010,Dortmund,2–0,Wolfsburg
3,Sat,11.09.2010,Bayern München,0–0,Bremen
3,Sat,11.09.2010,Hamburg,1–1,Nürnberg
3,Sat,11.09.2010,Mönchengladbach,0–4,Frankfurt
3,Sat,11.09.2010,Freiburg,2–1,Stuttgart
3,Sun,12.09.2010,Aachen 05,2–1,Kaiserslautern
3,Sun,12.09.2010,Köln,1–0,St. Pauli
4,Fri,17.09.2010,Frankfurt,0–1,Freiburg
4,Sat,18.09.2010,Bayern München,0–0,Köln
4,Sat,18.09.2010,Bremen,0–2,Aachen 05
4,Sat,18.09.2010,Wolfsburg,2–0,Hannover
4,Sat,18.09.2010,Kaiserslautern,2–2,Hoffenheim
4,Sat,18.09.2010,Stuttgart,7–0,Mönchengladbach
4,Sun,19.09.2010,Schalke,1–3,Dortmund
4,Sun,19.09.2010,Leverkusen,0–0,Nürnberg
4,Sun,19.09.2010,St. Pauli,1–1,Hamburg
5,Tue,21.09.2010,Hoffenheim,1–2,Bayern München
5,Tue,21.09.2010,Hannover,4–1,Bremen
5,Tue,21.09.2010,Aachen 05,2–0,Köln
5,Wed,22.09.2010,Mönchengladbach,1–2,St. Pauli
5,Wed,22.09.2010,Hamburg,1–3,Wolfsburg
5,Wed,22.09.2010,Freiburg,1–2,Schalke
5,Wed,22.09.2010,Leverkusen,2–1,Frankfurt
5,Wed,22.09.2010,Nürnberg,2–1,Stuttgart
5,Wed,22.09.2010,Dortmund,5–0,Kaiserslautern
6,Fri,24.09.2010,Köln,1–1,Hoffenheim
6,Sat,25.09.2010,Frankfurt,2–0,Nürnberg
6,Sat,25.09.2010,Bremen,3–2,Hamburg
6,Sat,25.09.2010,Stuttgart,1–4,Leverkusen
6,Sat,25.09.2010,St. Pauli,1–3,Dortmund
6,Sat,25.09.2010,Bayern München,1–2,Aachen 05
6,Sat,25.09.2010,Schalke,2–2,Mönchengladbach
6,Sun,26.09.2010,Wolfsburg,2–1,Freiburg
6,Sun,26.09.2010,Kaiserslautern,0–1,Hannover
7,Fri,01.10.2010,Hannover,0–1,St. Pauli
7,Sat,02.10.2010,Mönchengladbach,1–1,Wolfsburg
7,Sat,02.10.2010,Freiburg,3–2,Köln
7,Sat,02.10.2010,Hamburg,2–1,Kaiserslautern
7,Sat,02.10.2010,Aachen 05,4–2,Hoffenheim
7,Sat,02.10.2010,Nürnberg,2–1,Schalke
7,Sun,03.10.2010,Dortmund,2–0,Bayern München
7,Sun,03.10.2010,Leverkusen,2–2,Bremen
7,Sun,03.10.2010,Stuttgart,1–2,Frankfurt
8,Fri,15.10.2010,Köln,1–2,Dortmund
8,Sat,16.10.2010,Bayern München,3–0,Hannover
8,Sat,16.10.2010,Schalke,2–2,Stuttgart
8,Sat,16.10.2010,St. Pauli,3–2,Nürnberg
8,Sat,16.10.2010,Bremen,2–1,Freiburg
8,Sat,16.10.2010,Aachen 05,0–1,Hamburg
8,Sat,16.10.2010,Wolfsburg,2–3,Leverkusen
8,Sun,17.10.2010,Hoffenheim,3–2,Mönchengladbach
8,Sun,17.10.2010,Kaiserslautern,0–3,Frankfurt
9,Fri,22.10.2010,Hamburg,0–0,Bayern München
9,Sat,23.10.2010,Freiburg,2–1,Kaiserslautern
9,Sat,23.10.2010,Mönchengladbach,1–4,Bremen
9,Sat,23.10.2010,Nürnberg,2–1,Wolfsburg
9,Sat,23.10.2010,Frankfurt,0–0,Schalke
9,Sat,23.10.2010,Hannover,2–1,Köln
9,Sun,24.10.2010,Leverkusen,0–1,Aachen 05
9,Sun,24.10.2010,Stuttgart,2–0,St. Pauli
9,Sun,24.10.2010,Dortmund,1–1,Hoffenheim
10,Fri,29.10.2010,Bayern München,4–2,Freiburg
10,Sat,30.10.2010,Wolfsburg,2–0,Stuttgart
10,Sat,30.10.2010,Köln,3–2,Hamburg
10,Sat,30.10.2010,Bremen,2–3,Nürnberg
10,Sat,30.10.2010,St. Pauli,1–3,Frankfurt
10,Sat,30.10.2010,Schalke,0–1,Leverkusen
10,Sat,30.10.2010,Kaiserslautern,3–0,Mönchengladbach
10,Sun,31.10.2010,Hoffenheim,4–0,Hannover
10,Sun,31.10.2010,Aachen 05,0–2,Dortmund
11,Fri,05.11.2010,Schalke,3–0,St. Pauli
11,Sat,06.11.2010,Mönchengladbach,3–3,Bayern München
11,Sat,06.11.2010,Nürnberg,3–1,Köln
11,Sat,06.11.2010,Frankfurt,3–1,Wolfsburg
11,Sat,06.11.2010,Hamburg,2–1,Hoffenheim
11,Sat,06.11.2010,Freiburg,1–0,Aachen 05
11,Sun,07.11.2010,Stuttgart,6–0,Bremen
11,Sun,07.11.2010,Leverkusen,3–1,Kaiserslautern
11,Sun,07.11.2010,Hannover,0–4,Dortmund
12,Fri,12.11.2010,Dortmund,2–0,Hamburg
12,Sat,13.11.2010,St. Pauli,0–1,Leverkusen
12,Sat,13.11.2010,Aachen 05,0–1,Hannover
12,Sat,13.11.2010,Kaiserslautern,3–3,Stuttgart
12,Sat,13.11.2010,Köln,0–4,Mönchengladbach
12,Sat,13.11.2010,Wolfsburg,2–2,Schalke
12,Sat,13.11.2010,Bremen,0–0,Frankfurt
12,Sun,14.11.2010,Hoffenheim,0–1,Freiburg
12,Sun,14.11.2010,Bayern München,3–0,Nürnberg
13,Sat,20.11.2010,Leverkusen,1–1,Bayern München
13,Sat,20.11.2010,Frankfurt,0–4,Hoffenheim
13,Sat,20.11.2010,Mönchengladbach,2–3,Aachen 05
13,Sat,20.11.2010,Schalke,4–0,Bremen
13,Sat,20.11.2010,Hannover,3–2,Hamburg
13,Sat,20.11.2010,Nürnberg,1–3,Kaiserslautern
13,Sat,20.11.2010,Freiburg,1–2,Dortmund
13,Sun,21.11.2010,Stuttgart,0–1,Köln
13,Sun,21.11.2010,St. Pauli,1–1,Wolfsburg
14,Fri,26.11.2010,Aachen 05,3–0,Nürnberg
14,Sat,27.11.2010,Hamburg,4–2,Stuttgart
14,Sat,27.11.2010,Hannover,3–0,Freiburg
14,Sat,27.11.2010,Hoffenheim,2–2,Leverkusen
14,Sat,27.11.2010,Kaiserslautern,5–0,Schalke
14,Sat,27.11.2010,Bayern München,4–1,Frankfurt
14,Sat,27.11.2010,Dortmund,4–1,Mönchengladbach
14,Sun,28.11.2010,Köln,1–1,Wolfsburg
14,Sun,28.11.2010,Bremen,3–0,St. Pauli
15,Fri,03.12.2010,St. Pauli,1–0,Kaiserslautern
15,Sat,04.12.2010,Schalke,2–0,Bayern München
15,Sat,04.12.2010,Freiburg,1–0,Hamburg
15,Sat,04.12.2010,Mönchengladbach,1–2,Hannover
15,Sat,04.12.2010,Frankfurt,2–1,Aachen 05
15,Sat,04.12.2010,Wolfsburg,0–0,Bremen
15,Sat,04.12.2010,Stuttgart,1–1,Hoffenheim
15,Sun,05.12.2010,Nürnberg,0–2,Dortmund
15,Sun,05.12.2010,Leverkusen,3–2,Köln
16,Fri,10.12.2010,Hannover,2–1,Stuttgart
16,Sat,11.12.2010,Dortmund,2–0,Bremen
16,Sat,11.12.2010,Bayern München,3–0,St. Pauli
16,Sat,11.12.2010,Hamburg,2–4,Leverkusen
16,Sat,11.12.2010,Köln,1–0,Frankfurt
16,Sat,11.12.2010,Hoffenheim,1–1,Nürnberg
16,Sat,11.12.2010,Kaiserslautern,0–0,Wolfsburg
16,Sun,12.12.2010,Aachen 05,0–1,Schalke
16,Sun,12.12.2010,Freiburg,3–0,Mönchengladbach
17,Fri,17.12.2010,Mönchengladbach,1–2,Hamburg
17,Sat,18.12.2010,Nürnberg,3–1,Hannover
17,Sat,18.12.2010,Schalke,3–0,Köln
17,Sat,18.12.2010,Wolfsburg,2–2,Hoffenheim
17,Sat,18.12.2010,St. Pauli,2–4,Aachen 05
17,Sat,18.12.2010,Bremen,1–2,Kaiserslautern
17,Sat,18.12.2010,Frankfurt,1–0,Dortmund
17,Sun,19.12.2010,Leverkusen,2–2,Freiburg
17,Sun,19.12.2010,Stuttgart,3–5,Bayern München
18,Fri,14.01.2011,Leverkusen,1–3,Dortmund
18,Sat,15.01.2011,Stuttgart,1–0,Aachen 05
18,Sat,15.01.2011,Wolfsburg,1–1,Bayern München
18,Sat,15.01.2011,Nürnberg,0–1,Mönchengladbach
18,Sat,15.01.2011,Bremen,2–1,Hoffenheim
18,Sat,15.01.2011,St. Pauli,2–2,Freiburg
18,Sat,15.01.2011,Schalke,0–1,Hamburg
18,Sun,16.01.2011,Frankfurt,0–3,Hannover
18,Sun,16.01.2011,Kaiserslautern,1–1,Köln
19,Fri,21.01.2011,Hamburg,1–0,Frankfurt
19,Sat,22.01.2011,Bayern München,5–1,Kaiserslautern
19,Sat,22.01.2011,Aachen 05,0–1,Wolfsburg
19,Sat,22.01.2011,Hannover,0–1,Schalke
19,Sat,22.01.2011,Freiburg,1–1,Nürnberg
19,Sat,22.01.2011,Dortmund,1–1,Stuttgart
19,Sat,22.01.2011,Köln,3–0,Bremen
19,Sun,23.01.2011,Hoffenheim,2–2,St. Pauli
19,Sun,23.01.2011,Mönchengladbach,1–3,Leverkusen
20,Fri,28.01.2011,Leverkusen,2–0,Hannover
20,Sat,29.01.2011,Kaiserslautern,0–1,Aachen 05
20,Sat,29.01.2011,Wolfsburg,0–3,Dortmund
20,Sat,29.01.2011,Nürnberg,2–0,Hamburg
20,Sat,29.01.2011,Schalke,0–1,Hoffenheim
20,Sat,29.01.2011,St. Pauli,3–0,Köln
20,Sat,29.01.2011,Bremen,1–3,Bayern München
20,Sun,30.01.2011,Frankfurt,0–1,Mönchengladbach
20,Sun,30.01.2011,Stuttgart,0–1,Freiburg
21,Fri,04.02.2011,Dortmund,0–0,Schalke
21,Sat,05.02.2011,Aachen 05,1–1,Bremen
21,Sat,05.02.2011,Köln,3–2,Bayern München
21,Sat,05.02.2011,Hannover,1–0,Wolfsburg
21,Sat,05.02.2011,Nürnberg,1–0,Leverkusen
21,Sat,05.02.2011,Mönchengladbach,2–3,Stuttgart
21,Sat,05.02.2011,Hoffenheim,3–2,Kaiserslautern
21,Sun,06.02.2011,Freiburg,0–0,Frankfurt
22,Sat,12.02.2011,Kaiserslautern,1–1,Dortmund
22,Sat,12.02.2011,Schalke,1–0,Freiburg
22,Sat,12.02.2011,Frankfurt,0–3,Leverkusen
22,Sat,12.02.2011,St. Pauli,3–1,Mönchengladbach
22,Sat,12.02.2011,Wolfsburg,0–1,Hamburg
22,Sat,12.02.2011,Bayern München,4–0,Hoffenheim
22,Sat,12.02.2011,Stuttgart,1–4,Nürnberg
22,Sun,13.02.2011,Köln,4–2,Aachen 05
22,Sun,13.02.2011,Bremen,1–1,Hannover
21,Wed,16.02.2011,Hamburg,0–1,St. Pauli
23,Fri,18.02.2011,Nürnberg,3–0,Frankfurt
23,Sat,19.02.2011,Hannover,3–0,Kaiserslautern
23,Sat,19.02.2011,Freiburg,2–1,Wolfsburg
23,Sat,19.02.2011,Aachen 05,1–3,Bayern München
23,Sat,19.02.2011,Hoffenheim,1–1,Köln
23,Sat,19.02.2011,Dortmund,2–0,St. Pauli
23,Sat,19.02.2011,Hamburg,4–0,Bremen
23,Sun,20.02.2011,Mönchengladbach,2–1,Schalke
23,Sun,20.02.2011,Leverkusen,4–2,Stuttgart
24,Fri,25.02.2011,Wolfsburg,2–1,Mönchengladbach
24,Sat,26.02.2011,St. Pauli,0–1,Hannover
24,Sat,26.02.2011,Schalke,1–1,Nürnberg
24,Sat,26.02.2011,Köln,1–0,Freiburg
24,Sat,26.02.2011,Kaiserslautern,1–1,Hamburg
24,Sat,26.02.2011,Hoffenheim,1–2,Aachen 05
24,Sat,26.02.2011,Bayern München,1–3,Dortmund
24,Sun,27.02.2011,Bremen,2–2,Leverkusen
24,Sun,27.02.2011,Frankfurt,0–2,Stuttgart
25,Fri,04.03.2011,Dortmund,1–0,Köln
25,Sat,05.03.2011,Stuttgart,1–0,Schalke
25,Sat,05.03.2011,Nürnberg,5–0,St. Pauli
25,Sat,05.03.2011,Frankfurt,0–0,Kaiserslautern
25,Sat,05.03.2011,Mönchengladbach,2–0,Hoffenheim
25,Sat,05.03.2011,Leverkusen,3–0,Wolfsburg
25,Sat,05.03.2011,Hannover,3–1,Bayern München
25,Sun,06.03.2011,Hamburg,2–4,Aachen 05
25,Sun,06.03.2011,Freiburg,1–3,Bremen
26,Fri,11.03.2011,Köln,4–0,Hannover
26,Sat,12.03.2011,Kaiserslautern,2–1,Freiburg
26,Sat,12.03.2011,Hoffenheim,1–0,Dortmund
26,Sat,12.03.2011,Schalke,2–1,Frankfurt
26,Sat,12.03.2011,Bremen,1–1,Mönchengladbach
26,Sat,12.03.2011,Wolfsburg,1–2,Nürnberg
26,Sat,12.03.2011,Bayern München,6–0,Hamburg
26,Sun,13.03.2011,St. Pauli,1–2,Stuttgart
26,Sun,13.03.2011,Aachen 05,0–1,Leverkusen
27,Fri,18.03.2011,Mönchengladbach,0–1,Kaiserslautern
27,Sat,19.03.2011,Hannover,2–0,Hoffenheim
27,Sat,19.03.2011,Hamburg,6–2,Köln
27,Sat,19.03.2011,Dortmund,1–1,Aachen 05
27,Sat,19.03.2011,Nürnberg,1–3,Bremen
27,Sat,19.03.2011,Frankfurt,2–1,St. Pauli
27,Sat,19.03.2011,Freiburg,1–2,Bayern München
27,Sun,20.03.2011,Stuttgart,1–1,Wolfsburg
27,Sun,20.03.2011,Leverkusen,2–0,Schalke
28,Fri,01.04.2011,St. Pauli,0–2,Schalke
28,Sat,02.04.2011,Dortmund,4–1,Hannover
28,Sat,02.04.2011,Bayern München,1–0,Mönchengladbach
28,Sat,02.04.2011,Hoffenheim,0–0,Hamburg
28,Sat,02.04.2011,Aachen 05,1–1,Freiburg
28,Sat,02.04.2011,Kaiserslautern,0–1,Leverkusen
28,Sat,02.04.2011,Bremen,1–1,Stuttgart
28,Sun,03.04.2011,Köln,1–0,Nürnberg
28,Sun,03.04.2011,Wolfsburg,1–1,Frankfurt
29,Fri,08.04.2011,Frankfurt,1–1,Bremen
29,Sat,09.04.2011,Schalke,1–0,Wolfsburg
29,Sat,09.04.2011,Hannover,2–0,Aachen 05
29,Sat,09.04.2011,Freiburg,3–2,Hoffenheim
29,Sat,09.04.2011,Hamburg,1–1,Dortmund
29,Sat,09.04.2011,Nürnberg,1–1,Bayern München
29,Sat,09.04.2011,Stuttgart,2–4,Kaiserslautern
29,Sun,10.04.2011,Leverkusen,2–1,St. Pauli
29,Sun,10.04.2011,Mönchengladbach,5–1,Köln
30,Fri,15.04.2011,Aachen 05,1–0,Mönchengladbach
30,Sat,16.04.2011,Bremen,1–1,Schalke
30,Sat,16.04.2011,Hoffenheim,1–0,Frankfurt
30,Sat,16.04.2011,Kaiserslautern,0–2,Nürnberg
30,Sat,16.04.2011,Köln,1–3,Stuttgart
30,Sat,16.04.2011,Wolfsburg,2–2,St. Pauli
30,Sat,16.04.2011,Hamburg,0–0,Hannover
30,Sun,17.04.2011,Dortmund,3–0,Freiburg
30,Sun,17.04.2011,Bayern München,5–1,Leverkusen
31,Thu,21.04.2011,Freiburg,1–3,Hannover
31,Sat,23.04.2011,Schalke,0–1,Kaiserslautern
31,Sat,23.04.2011,Leverkusen,2–1,Hoffenheim
31,Sat,23.04.2011,Frankfurt,1–1,Bayern München
31,Sat,23.04.2011,St. Pauli,1–3,Bremen
31,Sat,23.04.2011,Stuttgart,3–0,Hamburg
31,Sat,23.04.2011,Mönchengladbach,1–0,Dortmund
31,Sun,24.04.2011,Wolfsburg,4–1,Köln
31,Sun,24.04.2011,Nürnberg,0–0,Aachen 05
32,Fri,29.04.2011,Kaiserslautern,2–0,St. Pauli
32,Fri,29.04.2011,Bremen,0–1,Wolfsburg
32,Sat,30.04.2011,Aachen 05,3–0,Frankfurt
32,Sat,30.04.2011,Hoffenheim,1–2,Stuttgart
32,Sat,30.04.2011,Bayern München,4–1,Schalke
32,Sat,30.04.2011,Hannover,0–1,Mönchengladbach
32,Sat,30.04.2011,Dortmund,2–0,Nürnberg
32,Sat,30.04.2011,Köln,2–0,Leverkusen
32,Sat,30.04.2011,Hamburg,0–2,Freiburg
33,Sat,07.05.2011,Nürnberg,1–2,Hoffenheim
33,Sat,07.05.2011,Stuttgart,2–1,Hannover
33,Sat,07.05.2011,Mönchengladbach,2–0,Freiburg
33,Sat,07.05.2011,Frankfurt,0–2,Köln
33,Sat,07.05.2011,Leverkusen,1–1,Hamburg
33,Sat,07.05.2011,St. Pauli,1–8,Bayern München
33,Sat,07.05.2011,Schalke,1–3,Aachen 05
33,Sat,07.05.2011,Bremen,2–0,Dortmund
33,Sat,07.05.2011,Wolfsburg,1–2,Kaiserslautern
34,Sat,14.05.2011,Köln,2–1,Schalke
34,Sat,14.05.2011,Kaiserslautern,3–2,Bremen
34,Sat,14.05.2011,Freiburg,0–1,Leverkusen
34,Sat,14.05.2011,Dortmund,3–1,Frankfurt
34,Sat,14.05.2011,Bayern München,2–1,Stuttgart
34,Sat,14.05.2011,Hamburg,1–1,Mönchengladbach
34,Sat,14.05.2011,Hannover,3–1,Nürnberg
34,Sat,14.05.2011,Aachen 05,2–1,St. Pauli
34,Sat,14.05.2011,Hoffenheim,1–3,Wolfsburg
